
=========== Iteration 1 ===========
x0 = 
 1.2500e+02
 5.0000e+00
 5.0000e+00

y0 =  4.0511e+01
grad =
-6.2151e-01
 1.5269e+00
-8.9850e-01

||grad|| =  1.8775e+00
inverse hessian B =
 1.0000e+00  0.0000e+00  0.0000e+00 
 0.0000e+00  1.0000e+00  0.0000e+00 
 0.0000e+00  0.0000e+00  1.0000e+00 

newton step dx = -B*grad
 6.2151e-01
-1.5269e+00
 8.9850e-01

****** Starting line search ******
xnew = x0 + 1.0000e+00*dx = 
 1.2562e+02
 3.4731e+00
 5.8985e+00

ynew           =  3.5526e+01
y0 + 0.01*dxtG =  4.0475e+01

Armijo condition satified!
******   Line search done   ******

ut*y = -6.9066e+00
I have updated B!

=========== Iteration 2 ===========
x0 = 
 1.2562e+02
 3.4731e+00
 5.8985e+00

y0 =  3.5526e+01
grad =
-2.5106e-01
 3.4050e+00
-1.3472e+00

||grad|| =  3.6704e+00
inverse hessian B =
 9.9087e-01  1.2378e-01 -4.8971e-02 
 1.2378e-01 -6.7870e-01  6.6417e-01 
-4.8971e-02  6.6417e-01  7.3722e-01 

newton step dx = -B*grad
-2.3866e-01
 3.2368e+00
-1.2806e+00

****** Starting line search ******
xnew = x0 + 1.0000e+00*dx = 
 1.2538e+02
 6.7100e+00
 4.6179e+00

ynew           =  4.2522e+01
y0 + 0.01*dxtG =  3.5654e+01

xnew = x0 + 5.0000e-01*dx = 
 1.2550e+02
 5.0916e+00
 5.2582e+00

ynew           =  4.0187e+01
y0 + 0.01*dxtG =  3.5590e+01

xnew = x0 + 2.5000e-01*dx = 
 1.2556e+02
 4.2823e+00
 5.5783e+00

ynew           =  3.8258e+01
y0 + 0.01*dxtG =  3.5558e+01

xnew = x0 + 1.2500e-01*dx = 
 1.2559e+02
 3.8777e+00
 5.7384e+00

ynew           =  3.7007e+01
y0 + 0.01*dxtG =  3.5542e+01

xnew = x0 + 6.2500e-02*dx = 
 1.2561e+02
 3.6754e+00
 5.8185e+00

ynew           =  3.6296e+01
y0 + 0.01*dxtG =  3.5534e+01

xnew = x0 + 3.1250e-02*dx = 
 1.2561e+02
 3.5743e+00
 5.8585e+00

ynew           =  3.5919e+01
y0 + 0.01*dxtG =  3.5530e+01

xnew = x0 + 1.5625e-02*dx = 
 1.2562e+02
 3.5237e+00
 5.8785e+00

ynew           =  3.5724e+01
y0 + 0.01*dxtG =  3.5528e+01

xnew = x0 + 7.8125e-03*dx = 
 1.2562e+02
 3.4984e+00
 5.8885e+00

ynew           =  3.5626e+01
y0 + 0.01*dxtG =  3.5527e+01

xnew = x0 + 3.9062e-03*dx = 
 1.2562e+02
 3.4858e+00
 5.8935e+00

ynew           =  3.5576e+01
y0 + 0.01*dxtG =  3.5526e+01

xnew = x0 + 1.9531e-03*dx = 
 1.2562e+02
 3.4795e+00
 5.8960e+00

ynew           =  3.5551e+01
y0 + 0.01*dxtG =  3.5526e+01

xnew = x0 + 9.7656e-04*dx = 
 1.2562e+02
 3.4763e+00
 5.8972e+00

ynew           =  3.5538e+01
y0 + 0.01*dxtG =  3.5526e+01

xnew = x0 + 4.8828e-04*dx = 
 1.2562e+02
 3.4747e+00
 5.8979e+00

ynew           =  3.5532e+01
y0 + 0.01*dxtG =  3.5526e+01

xnew = x0 + 2.4414e-04*dx = 
 1.2562e+02
 3.4739e+00
 5.8982e+00

ynew           =  3.5529e+01
y0 + 0.01*dxtG =  3.5526e+01

xnew = x0 + 1.2207e-04*dx = 
 1.2562e+02
 3.4735e+00
 5.8983e+00

ynew           =  3.5528e+01
y0 + 0.01*dxtG =  3.5526e+01

xnew = x0 + 6.1035e-05*dx = 
 1.2562e+02
 3.4733e+00
 5.8984e+00

ynew           =  3.5527e+01
y0 + 0.01*dxtG =  3.5526e+01

xnew = x0 + 3.0518e-05*dx = 
 1.2562e+02
 3.4732e+00
 5.8985e+00

ynew           =  3.5526e+01
y0 + 0.01*dxtG =  3.5526e+01

xnew = x0 + 1.5259e-05*dx = 
 1.2562e+02
 3.4732e+00
 5.8985e+00

ynew           =  3.5526e+01
y0 + 0.01*dxtG =  3.5526e+01

xnew = x0 + 7.6294e-06*dx = 
 1.2562e+02
 3.4732e+00
 5.8985e+00

ynew           =  3.5526e+01
y0 + 0.01*dxtG =  3.5526e+01

xnew = x0 + 3.8147e-06*dx = 
 1.2562e+02
 3.4732e+00
 5.8985e+00

ynew           =  3.5526e+01
y0 + 0.01*dxtG =  3.5526e+01

xnew = x0 + 1.9073e-06*dx = 
 1.2562e+02
 3.4731e+00
 5.8985e+00

ynew           =  3.5526e+01
y0 + 0.01*dxtG =  3.5526e+01

xnew = x0 + 9.5367e-07*dx = 
 1.2562e+02
 3.4731e+00
 5.8985e+00

ynew           =  3.5526e+01
y0 + 0.01*dxtG =  3.5526e+01

xnew = x0 + 4.7684e-07*dx = 
 1.2562e+02
 3.4731e+00
 5.8985e+00

ynew           =  3.5526e+01
y0 + 0.01*dxtG =  3.5526e+01

xnew = x0 + 2.3842e-07*dx = 
 1.2562e+02
 3.4731e+00
 5.8985e+00

ynew           =  3.5526e+01
y0 + 0.01*dxtG =  3.5526e+01

xnew = x0 + 1.1921e-07*dx = 
 1.2562e+02
 3.4731e+00
 5.8985e+00

ynew           =  3.5526e+01
y0 + 0.01*dxtG =  3.5526e+01

xnew = x0 + 5.9605e-08*dx = 
 1.2562e+02
 3.4731e+00
 5.8985e+00

ynew           =  3.5526e+01
y0 + 0.01*dxtG =  3.5526e+01

xnew = x0 + 2.9802e-08*dx = 
 1.2562e+02
 3.4731e+00
 5.8985e+00

ynew           =  3.5526e+01
y0 + 0.01*dxtG =  3.5526e+01

xnew = x0 + 1.4901e-08*dx = 
 1.2562e+02
 3.4731e+00
 5.8985e+00

ynew           =  3.5526e+01
y0 + 0.01*dxtG =  3.5526e+01

xnew = x0 + 7.4506e-09*dx = 
 1.2562e+02
 3.4731e+00
 5.8985e+00

ynew           =  3.5526e+01
y0 + 0.01*dxtG =  3.5526e+01

Line-search step too small! Inverse Hessian reset to identity!
******   Line search done   ******

ut*y = -6.9732e-13
Did not update B!

=========== Iteration 3 ===========
x0 = 
 1.2562e+02
 3.4731e+00
 5.8985e+00

y0 =  3.5526e+01
grad =
-2.5106e-01
 3.4050e+00
-1.3472e+00

||grad|| =  3.6704e+00
inverse hessian B =
 1.0000e+00  0.0000e+00  0.0000e+00 
 0.0000e+00  1.0000e+00  0.0000e+00 
 0.0000e+00  0.0000e+00  1.0000e+00 

newton step dx = -B*grad
 2.5106e-01
-3.4050e+00
 1.3472e+00

****** Starting line search ******
xnew = x0 + 1.0000e+00*dx = 
 1.2587e+02
 6.8130e-02
 7.2457e+00

ynew           =  3.5889e+01
y0 + 0.01*dxtG =  3.5391e+01

xnew = x0 + 5.0000e-01*dx = 
 1.2575e+02
 1.7706e+00
 6.5721e+00

ynew           =  2.8280e+01
y0 + 0.01*dxtG =  3.5459e+01

Armijo condition satified!
******   Line search done   ******

ut*y = -1.8496e+01
I have updated B!

=========== Iteration 4 ===========
x0 = 
 1.2575e+02
 1.7706e+00
 6.5721e+00

y0 =  2.8280e+01
grad =
-4.4165e+00
 1.3997e+00
-6.5170e-01

||grad|| =  4.6786e+00
inverse hessian B =
 4.5244e-03 -7.0238e-02  5.0775e-03 
-7.0238e-02  9.9504e-01  3.5825e-04 
 5.0775e-03  3.5825e-04  9.9997e-01 

newton step dx = -B*grad
 1.2161e-01
-1.7028e+00
 6.7361e-01

****** Starting line search ******
xnew = x0 + 1.0000e+00*dx = 
 1.2587e+02
 6.7853e-02
 7.2457e+00

ynew           =  3.6172e+01
y0 + 0.01*dxtG =  2.8246e+01

xnew = x0 + 5.0000e-01*dx = 
 1.2581e+02
 9.1924e-01
 6.9089e+00

ynew           =  3.0897e+01
y0 + 0.01*dxtG =  2.8263e+01

xnew = x0 + 2.5000e-01*dx = 
 1.2578e+02
 1.3449e+00
 6.7405e+00

ynew           =  2.8400e+01
y0 + 0.01*dxtG =  2.8271e+01

xnew = x0 + 1.2500e-01*dx = 
 1.2576e+02
 1.5578e+00
 6.6563e+00

ynew           =  2.8077e+01
y0 + 0.01*dxtG =  2.8276e+01

Armijo condition satified!
******   Line search done   ******

ut*y = -3.5563e+00
I have updated B!

=========== Iteration 5 ===========
x0 = 
 1.2576e+02
 1.5578e+00
 6.6563e+00

y0 =  2.8077e+01
grad =
-8.4569e+00
-8.3043e-01
-1.2297e-01

||grad|| =  8.4985e+00
inverse hessian B =
 7.1180e-05 -9.2917e-03 -9.8984e-03 
-9.2917e-03  1.6095e-01  2.0531e-01 
-9.8984e-03  2.0531e-01  9.4961e-01 

newton step dx = -B*grad
-8.3313e-03
 8.0325e-02
 2.0356e-01

****** Starting line search ******
xnew = x0 + 1.0000e+00*dx = 
 1.2575e+02
 1.6381e+00
 6.8598e+00

ynew           =  2.8057e+01
y0 + 0.01*dxtG =  2.8076e+01

Armijo condition satified!
******   Line search done   ******

ut*y = -8.9085e-04
I have updated B!

=========== Iteration 6 ===========
x0 = 
 1.2575e+02
 1.6381e+00
 6.8598e+00

y0 =  2.8057e+01
grad =
-7.7275e+00
-5.9151e-01
-1.7132e-01

||grad|| =  7.7520e+00
inverse hessian B =
-4.9449e-02  4.2744e-01  1.5383e+00 
 4.2744e-01 -3.6908e+00 -1.3448e+01 
 1.5383e+00 -1.3448e+01 -4.7451e+01 

newton step dx = -B*grad
 1.3426e-01
-1.1841e+00
-4.1975e+00

****** Starting line search ******
xnew = x0 + 1.0000e+00*dx = 
 1.2589e+02
 4.5400e-01
 2.6624e+00

ynew           =  3.1093e+01
y0 + 0.01*dxtG =  2.8061e+01

xnew = x0 + 5.0000e-01*dx = 
 1.2582e+02
 1.0461e+00
 4.7611e+00

ynew           =  2.8362e+01
y0 + 0.01*dxtG =  2.8059e+01

xnew = x0 + 2.5000e-01*dx = 
 1.2579e+02
 1.3421e+00
 5.8105e+00

ynew           =  2.8157e+01
y0 + 0.01*dxtG =  2.8058e+01

xnew = x0 + 1.2500e-01*dx = 
 1.2577e+02
 1.4901e+00
 6.3352e+00

ynew           =  2.8105e+01
y0 + 0.01*dxtG =  2.8057e+01

xnew = x0 + 6.2500e-02*dx = 
 1.2576e+02
 1.5641e+00
 6.5975e+00

ynew           =  2.8081e+01
y0 + 0.01*dxtG =  2.8057e+01

xnew = x0 + 3.1250e-02*dx = 
 1.2576e+02
 1.6011e+00
 6.7287e+00

ynew           =  2.8069e+01
y0 + 0.01*dxtG =  2.8057e+01

xnew = x0 + 1.5625e-02*dx = 
 1.2576e+02
 1.6196e+00
 6.7943e+00

ynew           =  2.8063e+01
y0 + 0.01*dxtG =  2.8057e+01

xnew = x0 + 7.8125e-03*dx = 
 1.2575e+02
 1.6289e+00
 6.8271e+00

ynew           =  2.8060e+01
y0 + 0.01*dxtG =  2.8057e+01

xnew = x0 + 3.9062e-03*dx = 
 1.2575e+02
 1.6335e+00
 6.8435e+00

ynew           =  2.8058e+01
y0 + 0.01*dxtG =  2.8057e+01

xnew = x0 + 1.9531e-03*dx = 
 1.2575e+02
 1.6358e+00
 6.8516e+00

ynew           =  2.8057e+01
y0 + 0.01*dxtG =  2.8057e+01

xnew = x0 + 9.7656e-04*dx = 
 1.2575e+02
 1.6370e+00
 6.8557e+00

ynew           =  2.8057e+01
y0 + 0.01*dxtG =  2.8057e+01

xnew = x0 + 4.8828e-04*dx = 
 1.2575e+02
 1.6375e+00
 6.8578e+00

ynew           =  2.8057e+01
y0 + 0.01*dxtG =  2.8057e+01

xnew = x0 + 2.4414e-04*dx = 
 1.2575e+02
 1.6378e+00
 6.8588e+00

ynew           =  2.8057e+01
y0 + 0.01*dxtG =  2.8057e+01

xnew = x0 + 1.2207e-04*dx = 
 1.2575e+02
 1.6380e+00
 6.8593e+00

ynew           =  2.8057e+01
y0 + 0.01*dxtG =  2.8057e+01

xnew = x0 + 6.1035e-05*dx = 
 1.2575e+02
 1.6380e+00
 6.8596e+00

ynew           =  2.8057e+01
y0 + 0.01*dxtG =  2.8057e+01

xnew = x0 + 3.0518e-05*dx = 
 1.2575e+02
 1.6381e+00
 6.8597e+00

ynew           =  2.8057e+01
y0 + 0.01*dxtG =  2.8057e+01

xnew = x0 + 1.5259e-05*dx = 
 1.2575e+02
 1.6381e+00
 6.8598e+00

ynew           =  2.8057e+01
y0 + 0.01*dxtG =  2.8057e+01

xnew = x0 + 7.6294e-06*dx = 
 1.2575e+02
 1.6381e+00
 6.8598e+00

ynew           =  2.8057e+01
y0 + 0.01*dxtG =  2.8057e+01

xnew = x0 + 3.8147e-06*dx = 
 1.2575e+02
 1.6381e+00
 6.8598e+00

ynew           =  2.8057e+01
y0 + 0.01*dxtG =  2.8057e+01

xnew = x0 + 1.9073e-06*dx = 
 1.2575e+02
 1.6381e+00
 6.8598e+00

ynew           =  2.8057e+01
y0 + 0.01*dxtG =  2.8057e+01

xnew = x0 + 9.5367e-07*dx = 
 1.2575e+02
 1.6381e+00
 6.8598e+00

ynew           =  2.8057e+01
y0 + 0.01*dxtG =  2.8057e+01

xnew = x0 + 4.7684e-07*dx = 
 1.2575e+02
 1.6381e+00
 6.8598e+00

ynew           =  2.8057e+01
y0 + 0.01*dxtG =  2.8057e+01

xnew = x0 + 2.3842e-07*dx = 
 1.2575e+02
 1.6381e+00
 6.8598e+00

ynew           =  2.8057e+01
y0 + 0.01*dxtG =  2.8057e+01

xnew = x0 + 1.1921e-07*dx = 
 1.2575e+02
 1.6381e+00
 6.8598e+00

ynew           =  2.8057e+01
y0 + 0.01*dxtG =  2.8057e+01

xnew = x0 + 5.9605e-08*dx = 
 1.2575e+02
 1.6381e+00
 6.8598e+00

ynew           =  2.8057e+01
y0 + 0.01*dxtG =  2.8057e+01

xnew = x0 + 2.9802e-08*dx = 
 1.2575e+02
 1.6381e+00
 6.8598e+00

ynew           =  2.8057e+01
y0 + 0.01*dxtG =  2.8057e+01

xnew = x0 + 1.4901e-08*dx = 
 1.2575e+02
 1.6381e+00
 6.8598e+00

ynew           =  2.8057e+01
y0 + 0.01*dxtG =  2.8057e+01

xnew = x0 + 7.4506e-09*dx = 
 1.2575e+02
 1.6381e+00
 6.8598e+00

ynew           =  2.8057e+01
y0 + 0.01*dxtG =  2.8057e+01

Line-search step too small! Inverse Hessian reset to identity!
******   Line search done   ******

ut*y = -3.5110e-13
Did not update B!

=========== Iteration 7 ===========
x0 = 
 1.2575e+02
 1.6381e+00
 6.8598e+00

y0 =  2.8057e+01
grad =
-7.7275e+00
-5.9151e-01
-1.7132e-01

||grad|| =  7.7520e+00
inverse hessian B =
 1.0000e+00  0.0000e+00  0.0000e+00 
 0.0000e+00  1.0000e+00  0.0000e+00 
 0.0000e+00  0.0000e+00  1.0000e+00 

newton step dx = -B*grad
 7.7275e+00
 5.9151e-01
 1.7132e-01

****** Starting line search ******
xnew = x0 + 1.0000e+00*dx = 
 1.3348e+02
 2.2296e+00
 7.0312e+00

ynew           =  6.5974e+01
y0 + 0.01*dxtG =  2.7456e+01

xnew = x0 + 5.0000e-01*dx = 
 1.2962e+02
 1.9339e+00
 6.9455e+00

ynew           =  5.1760e+01
y0 + 0.01*dxtG =  2.7756e+01

xnew = x0 + 2.5000e-01*dx = 
 1.2769e+02
 1.7860e+00
 6.9027e+00

ynew           =  3.4790e+01
y0 + 0.01*dxtG =  2.7907e+01

xnew = x0 + 1.2500e-01*dx = 
 1.2672e+02
 1.7121e+00
 6.8813e+00

ynew           =  3.6344e+01
y0 + 0.01*dxtG =  2.7982e+01

xnew = x0 + 6.2500e-02*dx = 
 1.2624e+02
 1.6751e+00
 6.8706e+00

ynew           =  2.8409e+01
y0 + 0.01*dxtG =  2.8019e+01

xnew = x0 + 3.1250e-02*dx = 
 1.2600e+02
 1.6566e+00
 6.8652e+00

ynew           =  2.7311e+01
y0 + 0.01*dxtG =  2.8038e+01

Armijo condition satified!
******   Line search done   ******

ut*y = -7.7573e+01
I have updated B!

=========== Iteration 8 ===========
x0 = 
 1.2600e+02
 1.6566e+00
 6.8652e+00

y0 =  2.7311e+01
grad =
 7.7579e-01
 2.0750e+00
-6.7764e-01

||grad|| =  2.3166e+00
inverse hessian B =
 1.2008e-01 -2.8203e-01  5.4495e-02 
-2.8203e-01  9.0960e-01  1.7466e-02 
 5.4495e-02  1.7466e-02  9.9663e-01 

newton step dx = -B*grad
 5.2899e-01
-1.6568e+00
 5.9683e-01

****** Starting line search ******
xnew = x0 + 1.0000e+00*dx = 
 1.2652e+02
-2.3189e-04
 7.4620e+00

ynew           =  3.4311e+02
y0 + 0.01*dxtG =  2.7277e+01

xnew = x0 + 5.0000e-01*dx = 
 1.2626e+02
 8.2818e-01
 7.1636e+00

ynew           =  3.8430e+01
y0 + 0.01*dxtG =  2.7294e+01

xnew = x0 + 2.5000e-01*dx = 
 1.2613e+02
 1.2424e+00
 7.0144e+00

ynew           =  2.8000e+01
y0 + 0.01*dxtG =  2.7303e+01

xnew = x0 + 1.2500e-01*dx = 
 1.2606e+02
 1.4495e+00
 6.9398e+00

ynew           =  2.7167e+01
y0 + 0.01*dxtG =  2.7307e+01

Armijo condition satified!
******   Line search done   ******

ut*y = -8.0304e+00
I have updated B!

=========== Iteration 9 ===========
x0 = 
 1.2606e+02
 1.4495e+00
 6.9398e+00

y0 =  2.7167e+01
grad =
 4.4507e+00
 2.7954e-01
-1.8684e-01

||grad|| =  4.4634e+00
inverse hessian B =
 1.7347e-02 -4.4648e-03 -1.1498e-02 
-4.4648e-03  1.5972e-01  1.9576e-01 
-1.1498e-02  1.9576e-01  9.5424e-01 

newton step dx = -B*grad
-7.8108e-02
 1.1799e-02
 1.7474e-01

****** Starting line search ******
xnew = x0 + 1.0000e+00*dx = 
 1.2598e+02
 1.4613e+00
 7.1145e+00

ynew           =  2.6955e+01
y0 + 0.01*dxtG =  2.7163e+01

Armijo condition satified!
******   Line search done   ******

ut*y =  2.0769e-02
I have updated B!

=========== Iteration 10 ===========
x0 = 
 1.2598e+02
 1.4613e+00
 7.1145e+00

y0 =  2.6955e+01
grad =
 2.3088e-01
 3.1251e-01
-1.5112e-01

||grad|| =  4.1690e-01
inverse hessian B =
 1.8257e-02 -4.2522e-04 -2.9433e-02 
-4.2522e-04  1.7765e-01  1.1614e-01 
-2.9433e-02  1.1614e-01  1.3077e+00 

newton step dx = -B*grad
-8.5303e-03
-3.7868e-02
 1.6813e-01

****** Starting line search ******
xnew = x0 + 1.0000e+00*dx = 
 1.2597e+02
 1.4234e+00
 7.2827e+00

ynew           =  2.6949e+01
y0 + 0.01*dxtG =  2.6954e+01

Armijo condition satified!
******   Line search done   ******

ut*y = -6.1149e-02
I have updated B!

=========== Iteration 11 ===========
x0 = 
 1.2597e+02
 1.4234e+00
 7.2827e+00

y0 =  2.6949e+01
grad =
-4.3247e-01
-4.0095e-01
 5.8888e-02

||grad|| =  5.9267e-01
inverse hessian B =
 1.6794e-02 -1.0356e-02 -2.2755e-02 
-1.0356e-02  1.1024e-01  1.6147e-01 
-2.2755e-02  1.6147e-01  1.2773e+00 

newton step dx = -B*grad
 4.4506e-03
 3.0211e-02
-2.0316e-02

****** Starting line search ******
xnew = x0 + 1.0000e+00*dx = 
 1.2598e+02
 1.4536e+00
 7.2624e+00

ynew           =  2.6940e+01
y0 + 0.01*dxtG =  2.6949e+01

Armijo condition satified!
******   Line search done   ******

ut*y = -3.5329e-04
I have updated B!

=========== Iteration 12 ===========
x0 = 
 1.2598e+02
 1.4536e+00
 7.2624e+00

y0 =  2.6940e+01
grad =
-6.5894e-02
-9.1859e-02
-2.9879e-02

||grad|| =  1.1693e-01
inverse hessian B =
 1.6015e-02  1.0830e-02  5.3707e-02 
 1.0830e-02 -4.6601e-01 -1.9183e+00 
 5.3707e-02 -1.9183e+00 -6.2287e+00 

newton step dx = -B*grad
 3.6548e-03
-9.9409e-02
-3.5878e-01

****** Starting line search ******
xnew = x0 + 1.0000e+00*dx = 
 1.2598e+02
 1.3542e+00
 6.9036e+00

ynew           =  2.6962e+01
y0 + 0.01*dxtG =  2.6940e+01

xnew = x0 + 5.0000e-01*dx = 
 1.2598e+02
 1.4039e+00
 7.0830e+00

ynew           =  2.6950e+01
y0 + 0.01*dxtG =  2.6940e+01

xnew = x0 + 2.5000e-01*dx = 
 1.2598e+02
 1.4288e+00
 7.1727e+00

ynew           =  2.6945e+01
y0 + 0.01*dxtG =  2.6940e+01

xnew = x0 + 1.2500e-01*dx = 
 1.2598e+02
 1.4412e+00
 7.2175e+00

ynew           =  2.6943e+01
y0 + 0.01*dxtG =  2.6940e+01

xnew = x0 + 6.2500e-02*dx = 
 1.2598e+02
 1.4474e+00
 7.2399e+00

ynew           =  2.6941e+01
y0 + 0.01*dxtG =  2.6940e+01

xnew = x0 + 3.1250e-02*dx = 
 1.2598e+02
 1.4505e+00
 7.2512e+00

ynew           =  2.6941e+01
y0 + 0.01*dxtG =  2.6940e+01

xnew = x0 + 1.5625e-02*dx = 
 1.2598e+02
 1.4521e+00
 7.2568e+00

ynew           =  2.6940e+01
y0 + 0.01*dxtG =  2.6940e+01

xnew = x0 + 7.8125e-03*dx = 
 1.2598e+02
 1.4529e+00
 7.2596e+00

ynew           =  2.6940e+01
y0 + 0.01*dxtG =  2.6940e+01

xnew = x0 + 3.9062e-03*dx = 
 1.2598e+02
 1.4532e+00
 7.2610e+00

ynew           =  2.6940e+01
y0 + 0.01*dxtG =  2.6940e+01

xnew = x0 + 1.9531e-03*dx = 
 1.2598e+02
 1.4534e+00
 7.2617e+00

ynew           =  2.6940e+01
y0 + 0.01*dxtG =  2.6940e+01

xnew = x0 + 9.7656e-04*dx = 
 1.2598e+02
 1.4535e+00
 7.2620e+00

ynew           =  2.6940e+01
y0 + 0.01*dxtG =  2.6940e+01

xnew = x0 + 4.8828e-04*dx = 
 1.2598e+02
 1.4536e+00
 7.2622e+00

ynew           =  2.6940e+01
y0 + 0.01*dxtG =  2.6940e+01

xnew = x0 + 2.4414e-04*dx = 
 1.2598e+02
 1.4536e+00
 7.2623e+00

ynew           =  2.6940e+01
y0 + 0.01*dxtG =  2.6940e+01

xnew = x0 + 1.2207e-04*dx = 
 1.2598e+02
 1.4536e+00
 7.2623e+00

ynew           =  2.6940e+01
y0 + 0.01*dxtG =  2.6940e+01

xnew = x0 + 6.1035e-05*dx = 
 1.2598e+02
 1.4536e+00
 7.2623e+00

ynew           =  2.6940e+01
y0 + 0.01*dxtG =  2.6940e+01

xnew = x0 + 3.0518e-05*dx = 
 1.2598e+02
 1.4536e+00
 7.2624e+00

ynew           =  2.6940e+01
y0 + 0.01*dxtG =  2.6940e+01

xnew = x0 + 1.5259e-05*dx = 
 1.2598e+02
 1.4536e+00
 7.2624e+00

ynew           =  2.6940e+01
y0 + 0.01*dxtG =  2.6940e+01

xnew = x0 + 7.6294e-06*dx = 
 1.2598e+02
 1.4536e+00
 7.2624e+00

ynew           =  2.6940e+01
y0 + 0.01*dxtG =  2.6940e+01

xnew = x0 + 3.8147e-06*dx = 
 1.2598e+02
 1.4536e+00
 7.2624e+00

ynew           =  2.6940e+01
y0 + 0.01*dxtG =  2.6940e+01

xnew = x0 + 1.9073e-06*dx = 
 1.2598e+02
 1.4536e+00
 7.2624e+00

ynew           =  2.6940e+01
y0 + 0.01*dxtG =  2.6940e+01

xnew = x0 + 9.5367e-07*dx = 
 1.2598e+02
 1.4536e+00
 7.2624e+00

ynew           =  2.6940e+01
y0 + 0.01*dxtG =  2.6940e+01

xnew = x0 + 4.7684e-07*dx = 
 1.2598e+02
 1.4536e+00
 7.2624e+00

ynew           =  2.6940e+01
y0 + 0.01*dxtG =  2.6940e+01

xnew = x0 + 2.3842e-07*dx = 
 1.2598e+02
 1.4536e+00
 7.2624e+00

ynew           =  2.6940e+01
y0 + 0.01*dxtG =  2.6940e+01

xnew = x0 + 1.1921e-07*dx = 
 1.2598e+02
 1.4536e+00
 7.2624e+00

ynew           =  2.6940e+01
y0 + 0.01*dxtG =  2.6940e+01

xnew = x0 + 5.9605e-08*dx = 
 1.2598e+02
 1.4536e+00
 7.2624e+00

ynew           =  2.6940e+01
y0 + 0.01*dxtG =  2.6940e+01

xnew = x0 + 2.9802e-08*dx = 
 1.2598e+02
 1.4536e+00
 7.2624e+00

ynew           =  2.6940e+01
y0 + 0.01*dxtG =  2.6940e+01

xnew = x0 + 1.4901e-08*dx = 
 1.2598e+02
 1.4536e+00
 7.2624e+00

ynew           =  2.6940e+01
y0 + 0.01*dxtG =  2.6940e+01

xnew = x0 + 7.4506e-09*dx = 
 1.2598e+02
 1.4536e+00
 7.2624e+00

ynew           =  2.6940e+01
y0 + 0.01*dxtG =  2.6940e+01

Line-search step too small! Inverse Hessian reset to identity!
******   Line search done   ******

ut*y = -5.7020e-14
Did not update B!

=========== Iteration 13 ===========
x0 = 
 1.2598e+02
 1.4536e+00
 7.2624e+00

y0 =  2.6940e+01
grad =
-6.5894e-02
-9.1859e-02
-2.9879e-02

||grad|| =  1.1693e-01
inverse hessian B =
 1.0000e+00  0.0000e+00  0.0000e+00 
 0.0000e+00  1.0000e+00  0.0000e+00 
 0.0000e+00  0.0000e+00  1.0000e+00 

newton step dx = -B*grad
 6.5894e-02
 9.1859e-02
 2.9879e-02

****** Starting line search ******
xnew = x0 + 1.0000e+00*dx = 
 1.2605e+02
 1.5455e+00
 7.2922e+00

ynew           =  2.7071e+01
y0 + 0.01*dxtG =  2.6940e+01

xnew = x0 + 5.0000e-01*dx = 
 1.2601e+02
 1.4996e+00
 7.2773e+00

ynew           =  2.6973e+01
y0 + 0.01*dxtG =  2.6940e+01

xnew = x0 + 2.5000e-01*dx = 
 1.2600e+02
 1.4766e+00
 7.2698e+00

ynew           =  2.6947e+01
y0 + 0.01*dxtG =  2.6940e+01

xnew = x0 + 1.2500e-01*dx = 
 1.2599e+02
 1.4651e+00
 7.2661e+00

ynew           =  2.6941e+01
y0 + 0.01*dxtG =  2.6940e+01

xnew = x0 + 6.2500e-02*dx = 
 1.2598e+02
 1.4594e+00
 7.2642e+00

ynew           =  2.6940e+01
y0 + 0.01*dxtG =  2.6940e+01

Armijo condition satified!
******   Line search done   ******

ut*y = -6.8282e-02
I have updated B!

=========== Iteration 14 ===========
x0 = 
 1.2598e+02
 1.4594e+00
 7.2642e+00

y0 =  2.6940e+01
grad =
 1.9302e-01
-4.2999e-02
-4.3288e-02

||grad|| =  2.0243e-01
inverse hessian B =
 4.9222e-02 -1.6090e-01  5.7005e-02 
-1.6090e-01  9.7277e-01  9.6468e-03 
 5.7005e-02  9.6468e-03  9.9658e-01 

newton step dx = -B*grad
-1.3952e-02
 7.3303e-02
 3.2552e-02

****** Starting line search ******
xnew = x0 + 1.0000e+00*dx = 
 1.2597e+02
 1.5327e+00
 7.2968e+00

ynew           =  2.6953e+01
y0 + 0.01*dxtG =  2.6940e+01

xnew = x0 + 5.0000e-01*dx = 
 1.2598e+02
 1.4960e+00
 7.2805e+00

ynew           =  2.6942e+01
y0 + 0.01*dxtG =  2.6940e+01

xnew = x0 + 2.5000e-01*dx = 
 1.2598e+02
 1.4777e+00
 7.2724e+00

ynew           =  2.6939e+01
y0 + 0.01*dxtG =  2.6940e+01

Armijo condition satified!
******   Line search done   ******

ut*y = -2.2829e-02
I have updated B!

=========== Iteration 15 ===========
x0 = 
 1.2598e+02
 1.4777e+00
 7.2724e+00

y0 =  2.6939e+01
grad =
 1.2514e-02
 8.0170e-02
-7.8879e-02

||grad|| =  1.1316e-01
inverse hessian B =
 1.6710e-02 -5.5332e-03 -5.8969e-03 
-5.5332e-03  2.3032e-01  3.1024e-01 
-5.8969e-03  3.1024e-01  8.7488e-01 

newton step dx = -B*grad
-2.3065e-04
 6.0756e-03
 4.4212e-02

****** Starting line search ******
xnew = x0 + 1.0000e+00*dx = 
 1.2598e+02
 1.4838e+00
 7.3166e+00

ynew           =  2.6937e+01
y0 + 0.01*dxtG =  2.6939e+01

Armijo condition satified!
******   Line search done   ******

ut*y =  6.1951e-05
I have updated B!

=========== Iteration 16 ===========
x0 = 
 1.2598e+02
 1.4838e+00
 7.3166e+00

y0 =  2.6937e+01
grad =
-5.0547e-03
 2.7475e-02
-6.2688e-02

||grad|| =  6.8631e-02
inverse hessian B =
 1.6996e-02 -3.3677e-02 -1.0541e-01 
-3.3677e-02  2.9971e+00  1.0093e+01 
-1.0541e-01  1.0093e+01  3.5465e+01 

newton step dx = -B*grad
-5.5966e-03
 5.5020e-01
 1.9454e+00

****** Starting line search ******
xnew = x0 + 1.0000e+00*dx = 
 1.2597e+02
 2.0340e+00
 9.2620e+00

ynew           =  2.6898e+01
y0 + 0.01*dxtG =  2.6936e+01

Armijo condition satified!
******   Line search done   ******

ut*y = -1.4706e-01
I have updated B!

=========== Iteration 17 ===========
x0 = 
 1.2597e+02
 2.0340e+00
 9.2620e+00

y0 =  2.6898e+01
grad =
 9.2112e-02
 6.3839e-01
-1.4937e-01

||grad|| =  6.6207e-01
inverse hessian B =
 1.6877e-02 -2.2211e-02 -7.3051e-02 
-2.2211e-02  1.8950e+00  6.9828e+00 
-7.3051e-02  6.9828e+00  2.6688e+01 

newton step dx = -B*grad
 1.7127e-03
-1.6463e-01
-4.6457e-01

****** Starting line search ******
xnew = x0 + 1.0000e+00*dx = 
 1.2598e+02
 1.8693e+00
 8.7974e+00

ynew           =  2.6882e+01
y0 + 0.01*dxtG =  2.6898e+01

Armijo condition satified!
******   Line search done   ******

ut*y = -1.1325e-02
I have updated B!

=========== Iteration 18 ===========
x0 = 
 1.2598e+02
 1.8693e+00
 8.7974e+00

y0 =  2.6882e+01
grad =
 3.1966e-02
 1.2647e-01
-5.0055e-02

||grad|| =  1.3972e-01
inverse hessian B =
 1.6707e-02 -8.6692e-03 -1.7321e-02 
-8.6692e-03  8.1539e-01  2.5399e+00 
-1.7321e-02  2.5399e+00  8.4034e+00 

newton step dx = -B*grad
-3.0465e-04
 2.4287e-02
 9.9954e-02

****** Starting line search ******
xnew = x0 + 1.0000e+00*dx = 
 1.2598e+02
 1.8936e+00
 8.8973e+00

ynew           =  2.6880e+01
y0 + 0.01*dxtG =  2.6882e+01

Armijo condition satified!
******   Line search done   ******

ut*y =  1.5220e-04
I have updated B!

=========== Iteration 19 ===========
x0 = 
 1.2598e+02
 1.8936e+00
 8.8973e+00

y0 =  2.6880e+01
grad =
 3.3712e-02
 1.4112e-01
-5.0921e-02

||grad|| =  1.5377e-01
inverse hessian B =
 1.7030e-02 -2.9884e-02 -1.1942e-01 
-2.9884e-02  2.2076e+00  9.2398e+00 
-1.1942e-01  9.2398e+00  4.0646e+01 

newton step dx = -B*grad
-2.4375e-03
 1.5996e-01
 7.6978e-01

****** Starting line search ******
xnew = x0 + 1.0000e+00*dx = 
 1.2597e+02
 2.0536e+00
 9.6671e+00

ynew           =  2.6870e+01
y0 + 0.01*dxtG =  2.6880e+01

Armijo condition satified!
******   Line search done   ******

ut*y =  1.9580e-03
I have updated B!

=========== Iteration 20 ===========
x0 = 
 1.2597e+02
 2.0536e+00
 9.6671e+00

y0 =  2.6870e+01
grad =
 2.1189e-02
 8.9330e-02
-2.2389e-02

||grad|| =  9.4499e-02
inverse hessian B =
 1.7098e-02 -3.1804e-02 -1.3566e-01 
-3.1804e-02  2.2618e+00  9.6982e+00 
-1.3566e-01  9.6982e+00  4.4525e+01 

newton step dx = -B*grad
-5.5858e-04
 1.5764e-02
 1.3342e-01

****** Starting line search ******
xnew = x0 + 1.0000e+00*dx = 
 1.2597e+02
 2.0694e+00
 9.8005e+00

ynew           =  2.6870e+01
y0 + 0.01*dxtG =  2.6870e+01

Armijo condition satified!
******   Line search done   ******

ut*y = -1.1222e-04
I have updated B!

=========== Iteration 21 ===========
x0 = 
 1.2597e+02
 2.0694e+00
 9.8005e+00

y0 =  2.6870e+01
grad =
 1.7045e-03
-1.3787e-02
 1.3981e-03

||grad|| =  1.3962e-02
inverse hessian B =
 1.6410e-02  1.1982e-02  4.1901e-02 
 1.1982e-02 -5.2305e-01 -1.5949e+00 
 4.1901e-02 -1.5949e+00 -1.2706e+00 

newton step dx = -B*grad
 7.8643e-05
-5.0018e-03
-2.0283e-02

****** Starting line search ******
xnew = x0 + 1.0000e+00*dx = 
 1.2597e+02
 2.0644e+00
 9.7803e+00

ynew           =  2.6870e+01
y0 + 0.01*dxtG =  2.6870e+01

xnew = x0 + 5.0000e-01*dx = 
 1.2597e+02
 2.0669e+00
 9.7904e+00

ynew           =  2.6870e+01
y0 + 0.01*dxtG =  2.6870e+01

xnew = x0 + 2.5000e-01*dx = 
 1.2597e+02
 2.0681e+00
 9.7955e+00

ynew           =  2.6870e+01
y0 + 0.01*dxtG =  2.6870e+01

xnew = x0 + 1.2500e-01*dx = 
 1.2597e+02
 2.0687e+00
 9.7980e+00

ynew           =  2.6870e+01
y0 + 0.01*dxtG =  2.6870e+01

xnew = x0 + 6.2500e-02*dx = 
 1.2597e+02
 2.0690e+00
 9.7993e+00

ynew           =  2.6870e+01
y0 + 0.01*dxtG =  2.6870e+01

xnew = x0 + 3.1250e-02*dx = 
 1.2597e+02
 2.0692e+00
 9.7999e+00

ynew           =  2.6870e+01
y0 + 0.01*dxtG =  2.6870e+01

xnew = x0 + 1.5625e-02*dx = 
 1.2597e+02
 2.0693e+00
 9.8002e+00

ynew           =  2.6870e+01
y0 + 0.01*dxtG =  2.6870e+01

xnew = x0 + 7.8125e-03*dx = 
 1.2597e+02
 2.0693e+00
 9.8004e+00

ynew           =  2.6870e+01
y0 + 0.01*dxtG =  2.6870e+01

xnew = x0 + 3.9062e-03*dx = 
 1.2597e+02
 2.0693e+00
 9.8005e+00

ynew           =  2.6870e+01
y0 + 0.01*dxtG =  2.6870e+01

xnew = x0 + 1.9531e-03*dx = 
 1.2597e+02
 2.0693e+00
 9.8005e+00

ynew           =  2.6870e+01
y0 + 0.01*dxtG =  2.6870e+01

xnew = x0 + 9.7656e-04*dx = 
 1.2597e+02
 2.0694e+00
 9.8005e+00

ynew           =  2.6870e+01
y0 + 0.01*dxtG =  2.6870e+01

xnew = x0 + 4.8828e-04*dx = 
 1.2597e+02
 2.0694e+00
 9.8005e+00

ynew           =  2.6870e+01
y0 + 0.01*dxtG =  2.6870e+01

xnew = x0 + 2.4414e-04*dx = 
 1.2597e+02
 2.0694e+00
 9.8005e+00

ynew           =  2.6870e+01
y0 + 0.01*dxtG =  2.6870e+01

xnew = x0 + 1.2207e-04*dx = 
 1.2597e+02
 2.0694e+00
 9.8005e+00

ynew           =  2.6870e+01
y0 + 0.01*dxtG =  2.6870e+01

xnew = x0 + 6.1035e-05*dx = 
 1.2597e+02
 2.0694e+00
 9.8005e+00

ynew           =  2.6870e+01
y0 + 0.01*dxtG =  2.6870e+01

xnew = x0 + 3.0518e-05*dx = 
 1.2597e+02
 2.0694e+00
 9.8005e+00

ynew           =  2.6870e+01
y0 + 0.01*dxtG =  2.6870e+01

xnew = x0 + 1.5259e-05*dx = 
 1.2597e+02
 2.0694e+00
 9.8005e+00

ynew           =  2.6870e+01
y0 + 0.01*dxtG =  2.6870e+01

xnew = x0 + 7.6294e-06*dx = 
 1.2597e+02
 2.0694e+00
 9.8005e+00

ynew           =  2.6870e+01
y0 + 0.01*dxtG =  2.6870e+01

xnew = x0 + 3.8147e-06*dx = 
 1.2597e+02
 2.0694e+00
 9.8005e+00

ynew           =  2.6870e+01
y0 + 0.01*dxtG =  2.6870e+01

xnew = x0 + 1.9073e-06*dx = 
 1.2597e+02
 2.0694e+00
 9.8005e+00

ynew           =  2.6870e+01
y0 + 0.01*dxtG =  2.6870e+01

xnew = x0 + 9.5367e-07*dx = 
 1.2597e+02
 2.0694e+00
 9.8005e+00

ynew           =  2.6870e+01
y0 + 0.01*dxtG =  2.6870e+01

xnew = x0 + 4.7684e-07*dx = 
 1.2597e+02
 2.0694e+00
 9.8005e+00

ynew           =  2.6870e+01
y0 + 0.01*dxtG =  2.6870e+01

xnew = x0 + 2.3842e-07*dx = 
 1.2597e+02
 2.0694e+00
 9.8005e+00

ynew           =  2.6870e+01
y0 + 0.01*dxtG =  2.6870e+01

xnew = x0 + 1.1921e-07*dx = 
 1.2597e+02
 2.0694e+00
 9.8005e+00

ynew           =  2.6870e+01
y0 + 0.01*dxtG =  2.6870e+01

xnew = x0 + 5.9605e-08*dx = 
 1.2597e+02
 2.0694e+00
 9.8005e+00

ynew           =  2.6870e+01
y0 + 0.01*dxtG =  2.6870e+01

xnew = x0 + 2.9802e-08*dx = 
 1.2597e+02
 2.0694e+00
 9.8005e+00

ynew           =  2.6870e+01
y0 + 0.01*dxtG =  2.6870e+01

xnew = x0 + 1.4901e-08*dx = 
 1.2597e+02
 2.0694e+00
 9.8005e+00

ynew           =  2.6870e+01
y0 + 0.01*dxtG =  2.6870e+01

xnew = x0 + 7.4506e-09*dx = 
 1.2597e+02
 2.0694e+00
 9.8005e+00

ynew           =  2.6870e+01
y0 + 0.01*dxtG =  2.6870e+01

Line-search step too small! Inverse Hessian reset to identity!
******   Line search done   ******

ut*y = -4.5468e-13
Did not update B!

=========== Iteration 22 ===========
x0 = 
 1.2597e+02
 2.0694e+00
 9.8005e+00

y0 =  2.6870e+01
grad =
 1.7040e-03
-1.3787e-02
 1.3976e-03

||grad|| =  1.3962e-02
inverse hessian B =
 1.0000e+00  0.0000e+00  0.0000e+00 
 0.0000e+00  1.0000e+00  0.0000e+00 
 0.0000e+00  0.0000e+00  1.0000e+00 

newton step dx = -B*grad
-1.7040e-03
 1.3787e-02
-1.3976e-03

****** Starting line search ******
xnew = x0 + 1.0000e+00*dx = 
 1.2597e+02
 2.0831e+00
 9.7991e+00

ynew           =  2.6870e+01
y0 + 0.01*dxtG =  2.6870e+01

xnew = x0 + 5.0000e-01*dx = 
 1.2597e+02
 2.0762e+00
 9.7998e+00

ynew           =  2.6870e+01
y0 + 0.01*dxtG =  2.6870e+01

xnew = x0 + 2.5000e-01*dx = 
 1.2597e+02
 2.0728e+00
 9.8002e+00

ynew           =  2.6870e+01
y0 + 0.01*dxtG =  2.6870e+01

xnew = x0 + 1.2500e-01*dx = 
 1.2597e+02
 2.0711e+00
 9.8004e+00

ynew           =  2.6870e+01
y0 + 0.01*dxtG =  2.6870e+01

Armijo condition satified!
******   Line search done   ******

ut*y = -2.4018e-04
I have updated B!

=========== Iteration 23 ===========
x0 = 
 1.2597e+02
 2.0711e+00
 9.8004e+00

y0 =  2.6870e+01
grad =
-3.0739e-03
 1.5566e-03
-1.7557e-03

||grad|| =  3.8671e-03
inverse hessian B =
 9.1324e-01  2.5886e-01 -5.6612e-02 
 2.5886e-01  2.2764e-01  1.6891e-01 
-5.6612e-02  1.6891e-01  9.6306e-01 

newton step dx = -B*grad
 2.3049e-03
 7.3793e-04
 1.2539e-03

****** Starting line search ******
xnew = x0 + 1.0000e+00*dx = 
 1.2597e+02
 2.0718e+00
 9.8016e+00

ynew           =  2.6870e+01
y0 + 0.01*dxtG =  2.6870e+01

xnew = x0 + 5.0000e-01*dx = 
 1.2597e+02
 2.0714e+00
 9.8010e+00

ynew           =  2.6870e+01
y0 + 0.01*dxtG =  2.6870e+01

xnew = x0 + 2.5000e-01*dx = 
 1.2597e+02
 2.0713e+00
 9.8007e+00

ynew           =  2.6870e+01
y0 + 0.01*dxtG =  2.6870e+01

xnew = x0 + 1.2500e-01*dx = 
 1.2597e+02
 2.0712e+00
 9.8005e+00

ynew           =  2.6870e+01
y0 + 0.01*dxtG =  2.6870e+01

xnew = x0 + 6.2500e-02*dx = 
 1.2597e+02
 2.0711e+00
 9.8004e+00

ynew           =  2.6870e+01
y0 + 0.01*dxtG =  2.6870e+01

Armijo condition satified!
******   Line search done   ******

ut*y = -2.1514e-05
I have updated B!

=========== Iteration 24 ===========
x0 = 
 1.2597e+02
 2.0711e+00
 9.8004e+00

y0 =  2.6870e+01
grad =
 1.7226e-03
 2.0106e-03
-1.8313e-03

||grad|| =  3.2192e-03
inverse hessian B =
 3.0403e-02 -1.6651e-03  1.3483e-02 
-1.6651e-03  1.5076e-01  1.8959e-01 
 1.3483e-02  1.8959e-01  9.5750e-01 

newton step dx = -B*grad
-2.4334e-05
 4.6960e-05
 1.3490e-03

****** Starting line search ******
xnew = x0 + 1.0000e+00*dx = 
 1.2597e+02
 2.0712e+00
 9.8018e+00

ynew           =  2.6870e+01
y0 + 0.01*dxtG =  2.6870e+01

Armijo condition satified!
******   Line search done   ******

ut*y =  3.5263e-08
I have updated B!

=========== Iteration 25 ===========
x0 = 
 1.2597e+02
 2.0712e+00
 9.8018e+00

y0 =  2.6870e+01
grad =
 7.6747e-04
-4.3631e-05
-1.3885e-03

||grad|| =  1.5871e-03
inverse hessian B =
 3.1026e-02 -3.7687e-02 -1.6289e-01 
-3.7687e-02  2.2352e+00  1.0396e+01 
-1.6289e-01  1.0396e+01  5.0929e+01 

newton step dx = -B*grad
-2.5163e-04
 1.4561e-02
 7.1296e-02

****** Starting line search ******
xnew = x0 + 1.0000e+00*dx = 
 1.2597e+02
 2.0857e+00
 9.8731e+00

ynew           =  2.6870e+01
y0 + 0.01*dxtG =  2.6870e+01

Armijo condition satified!
******   Line search done   ******

ut*y =  3.9241e-06
I have updated B!

=========== Iteration 26 ===========
x0 = 
 1.2597e+02
 2.0857e+00
 9.8731e+00

y0 =  2.6870e+01
grad =
 5.5075e-05
 3.2258e-04
-1.2326e-04

||grad|| =  3.4969e-04
inverse hessian B =
 3.1050e-02 -3.9067e-02 -1.7009e-01 
-3.9067e-02  2.3159e+00  1.0816e+01 
-1.7009e-01  1.0816e+01  5.3122e+01 

newton step dx = -B*grad
-1.0073e-05
 5.8832e-04
 3.0682e-03

****** Starting line search ******
xnew = x0 + 1.0000e+00*dx = 
 1.2597e+02
 2.0863e+00
 9.8762e+00

ynew           =  2.6870e+01
y0 + 0.01*dxtG =  2.6870e+01

Armijo condition satified!
******   Line search done   ******

ut*y =  3.6316e-09
I have updated B!

=========== Iteration 27 ===========
x0 = 
 1.2597e+02
 2.0863e+00
 9.8762e+00

y0 =  2.6870e+01
grad =
 3.3379e-06
 1.8597e-05
-4.7684e-06

||grad|| =  1.9486e-05
inverse hessian B =
 3.1059e-02 -3.9515e-02 -1.7282e-01 
-3.9515e-02  2.3364e+00  1.0942e+01 
-1.7282e-01  1.0942e+01  5.3887e+01 

newton step dx = -B*grad
-1.9289e-07
 8.8559e-06
 5.4054e-05

****** Starting line search ******
xnew = x0 + 1.0000e+00*dx = 
 1.2597e+02
 2.0863e+00
 9.8762e+00

ynew           =  2.6870e+01
y0 + 0.01*dxtG =  2.6870e+01

Armijo condition satified!
******   Line search done   ******

ut*y = -2.3120e-11
I have updated B!

=========== Iteration 28 ===========
x0 = 
 1.2597e+02
 2.0863e+00
 9.8762e+00

y0 =  2.6870e+01
grad =
 2.3842e-07
 4.7684e-07
 2.3842e-07

||grad|| =  5.8400e-07

-----------------------------------------------
Quasi-Newton solver ended after  28 iterations!
-----------------------------------------------

Optimization converged!
