#Re(t)               Im(t)                   Re(y0)              Im(y0)                  Re(y1)              Im(y1)                  
 0.000000000000e+00  0.000000000000e+00      0.000000000000e+00  1.000000000000e+00      0.000000000000e+00  0.000000000000e+00     
 1.000000000000e-03  0.000000000000e+00      0.000000000000e+00  9.999995000000e-01      0.000000000000e+00 -9.999998125000e-04     
 1.872225075959e-02  0.000000000000e+00      0.000000000000e+00  9.998247418439e-01      0.000000000000e+00 -1.872104101721e-02     
 7.080530704485e-02  0.000000000000e+00      0.000000000000e+00  9.974942573457e-01      0.000000000000e+00 -7.074309453737e-02     
 1.488122080704e-01  0.000000000000e+00      0.000000000000e+00  9.889479590584e-01      0.000000000000e+00 -1.482505672388e-01     
 2.395398052471e-01  0.000000000000e+00      0.000000000000e+00  9.714494357535e-01      0.000000000000e+00 -2.372270046522e-01     
 3.355298343543e-01  0.000000000000e+00      0.000000000000e+00  9.442435585917e-01      0.000000000000e+00 -3.292228672885e-01     
 4.335591284211e-01  0.000000000000e+00      0.000000000000e+00  9.074930724526e-01      0.000000000000e+00 -4.200383732263e-01     
 5.323594659769e-01  0.000000000000e+00      0.000000000000e+00  8.616416476454e-01      0.000000000000e+00 -5.074856209864e-01     
 6.314486901242e-01  0.000000000000e+00      0.000000000000e+00  8.072195096594e-01      0.000000000000e+00 -5.902174409867e-01     
 7.306458109656e-01  0.000000000000e+00      0.000000000000e+00  7.448097410168e-01      0.000000000000e+00 -6.672408554388e-01     
 8.298832100706e-01  0.000000000000e+00      0.000000000000e+00  6.750508000318e-01      0.000000000000e+00 -7.377331895086e-01     
 9.291356694352e-01  0.000000000000e+00      0.000000000000e+00  5.986405975648e-01      0.000000000000e+00 -8.009776549254e-01     
 1.028393790282e+00  0.000000000000e+00      0.000000000000e+00  5.163361809434e-01      0.000000000000e+00 -8.563437641699e-01     
 1.127654070535e+00  0.000000000000e+00      0.000000000000e+00  4.289497029465e-01      0.000000000000e+00 -9.032838819166e-01     
 1.226915205402e+00  0.000000000000e+00      0.000000000000e+00  3.373420544866e-01      0.000000000000e+00 -9.413351591514e-01     
 1.326176708768e+00  0.000000000000e+00      0.000000000000e+00  2.424151228195e-01      0.000000000000e+00 -9.701228666233e-01     
 1.425438399526e+00  0.000000000000e+00      0.000000000000e+00  1.451032319651e-01      0.000000000000e+00 -9.893636564639e-01     
 1.524700210203e+00  0.000000000000e+00      0.000000000000e+00  4.636408093509e-02      0.000000000000e+00 -9.988682041315e-01     
 1.623962115663e+00  0.000000000000e+00      0.000000000000e+00 -5.283062622545e-02      0.000000000000e+00 -9.985430219878e-01     
 1.723224106540e+00  0.000000000000e+00      0.000000000000e+00 -1.515047207647e-01      0.000000000000e+00 -9.883913627978e-01     
 1.822486179347e+00  0.000000000000e+00      0.000000000000e+00 -2.486871667672e-01      0.000000000000e+00 -9.685131822700e-01     
 1.921748332785e+00  0.000000000000e+00      0.000000000000e+00 -3.434216135121e-01      0.000000000000e+00 -9.391041535608e-01     
 2.021010566368e+00  0.000000000000e+00      0.000000000000e+00 -4.347758054179e-01      0.000000000000e+00 -9.004537409783e-01     
 2.120272879918e+00  0.000000000000e+00      0.000000000000e+00 -5.218507556871e-01      0.000000000000e+00 -8.529423510430e-01     
 2.219535273367e+00  0.000000000000e+00      0.000000000000e+00 -6.037895928662e-01      0.000000000000e+00 -7.970375886965e-01     
 2.318797746692e+00  0.000000000000e+00      0.000000000000e+00 -6.797859930668e-01      0.000000000000e+00 -7.332896554246e-01     
 2.418060299882e+00  0.000000000000e+00      0.000000000000e+00 -7.490921147903e-01      0.000000000000e+00 -6.623259345629e-01     
 2.517322932936e+00  0.000000000000e+00      0.000000000000e+00 -8.110259582412e-01      0.000000000000e+00 -5.848448170644e-01     
 2.616585645852e+00  0.000000000000e+00      0.000000000000e+00 -8.649780766949e-01      0.000000000000e+00 -5.016088284878e-01     
 2.715848438630e+00  0.000000000000e+00      0.000000000000e+00 -9.104175738693e-01      0.000000000000e+00 -4.134371248457e-01     
 2.815111311272e+00  0.000000000000e+00      0.000000000000e+00 -9.468973282775e-01      0.000000000000e+00 -3.211974311568e-01     
 2.914374263776e+00  0.000000000000e+00      0.000000000000e+00 -9.740583931486e-01      0.000000000000e+00 -2.257975020389e-01     
 3.013637296144e+00  0.000000000000e+00      0.000000000000e+00 -9.916335286145e-01      0.000000000000e+00 -1.281761883758e-01     
 3.112900408376e+00  0.000000000000e+00      0.000000000000e+00 -9.994498314033e-01      0.000000000000e+00 -2.929419797176e-02     
 3.212163600472e+00  0.000000000000e+00      0.000000000000e+00 -9.974304361585e-01      0.000000000000e+00  6.987535888011e-02     
 3.311426872434e+00  0.000000000000e+00      0.000000000000e+00 -9.855952716409e-01      0.000000000000e+00  1.683565458766e-01     
 3.410690224261e+00  0.000000000000e+00      0.000000000000e+00 -9.640608643702e-01      0.000000000000e+00  2.651802049852e-01     
 3.509953655953e+00  0.000000000000e+00      0.000000000000e+00 -9.330391916384e-01      0.000000000000e+00  3.593934940115e-01     
 3.609217167513e+00  0.000000000000e+00      0.000000000000e+00 -8.928355951826e-01      0.000000000000e+00  4.500692635920e-01     
 3.708480758939e+00  0.000000000000e+00      0.000000000000e+00 -8.438457760460e-01      0.000000000000e+00  5.363151813328e-01     
 3.807744430233e+00  0.000000000000e+00      0.000000000000e+00 -7.865519002033e-01      0.000000000000e+00  6.172825133017e-01     
 3.907008181394e+00  0.000000000000e+00      0.000000000000e+00 -7.215178532727e-01      0.000000000000e+00  6.921744764523e-01     
 4.006272012424e+00  0.000000000000e+00      0.000000000000e+00 -6.493836910150e-01      0.000000000000e+00  7.602540797841e-01     
 4.105535923322e+00  0.000000000000e+00      0.000000000000e+00 -5.708593402305e-01      0.000000000000e+00  8.208513770693e-01     
 4.204799914090e+00  0.000000000000e+00      0.000000000000e+00 -4.867176120471e-01      0.000000000000e+00  8.733700597730e-01     
 4.304063984728e+00  0.000000000000e+00      0.000000000000e+00 -3.977865963541e-01      0.000000000000e+00  9.172933252808e-01     
 4.403328135236e+00  0.000000000000e+00      0.000000000000e+00 -3.049415122309e-01      0.000000000000e+00  9.521889626856e-01     
 4.502592365615e+00  0.000000000000e+00      0.000000000000e+00 -2.090960945719e-01      0.000000000000e+00  9.777136060801e-01     
 4.601856675865e+00  0.000000000000e+00      0.000000000000e+00 -1.111936016739e-01      0.000000000000e+00  9.936161134980e-01     
 4.701121065987e+00  0.000000000000e+00      0.000000000000e+00 -1.219753228300e-02      0.000000000000e+00  9.997400382490e-01     
 4.800385535981e+00  0.000000000000e+00      0.000000000000e+00  8.691785654386e-02      0.000000000000e+00  9.960251683271e-01     
 4.899650085848e+00  0.000000000000e+00      0.000000000000e+00  1.851771374448e-01      0.000000000000e+00  9.825081187397e-01     
 4.998914715588e+00  0.000000000000e+00      0.000000000000e+00  2.816133122681e-01      0.000000000000e+00  9.593219709299e-01     
 5.098179425201e+00  0.000000000000e+00      0.000000000000e+00  3.752773286250e-01      0.000000000000e+00  9.266949628375e-01     
 5.197444214689e+00  0.000000000000e+00      0.000000000000e+00  4.652474198226e-01      0.000000000000e+00  8.849482424916e-01     
 5.296709084051e+00  0.000000000000e+00      0.000000000000e+00  5.506381762606e-01      0.000000000000e+00  8.344927072398e-01     
 5.395974033289e+00  0.000000000000e+00      0.000000000000e+00  6.306092590147e-01      0.000000000000e+00  7.758249597220e-01     
 5.495239062402e+00  0.000000000000e+00      0.000000000000e+00  7.043736698539e-01      0.000000000000e+00  7.095224203852e-01     
 5.594504171391e+00  0.000000000000e+00      0.000000000000e+00  7.712054963018e-01      0.000000000000e+00  6.362376446391e-01     
 5.693769360257e+00  0.000000000000e+00      0.000000000000e+00  8.304470555183e-01      0.000000000000e+00  5.566919005800e-01     
 5.793034628999e+00  0.000000000000e+00      0.000000000000e+00  8.815153666962e-01      0.000000000000e+00  4.716680704866e-01     
 5.892299977620e+00  0.000000000000e+00      0.000000000000e+00  9.239078882734e-01      0.000000000000e+00  3.820029459457e-01     
 5.991565406118e+00  0.000000000000e+00      0.000000000000e+00  9.572074634972e-01      0.000000000000e+00  2.885789924381e-01     
 6.090830914494e+00  0.000000000000e+00      0.000000000000e+00  9.810864256690e-01      0.000000000000e+00  1.923156644288e-01     
 6.190096502750e+00  0.000000000000e+00      0.000000000000e+00  9.953098226667e-01      0.000000000000e+00  9.416035643858e-02     
 6.283185307180e+00  0.000000000000e+00      0.000000000000e+00  9.997499717118e-01      0.000000000000e+00  1.250867831792e-03     
