  0.467420   0.922107
  0.855000   0.983566
  0.799250   0.999439
  0.973282   0.948172
  0.925712   0.439613
  0.884808   0.964004
  0.792991   0.794918
  0.901855   0.475158
  0.739925   0.913625
  0.448378   0.897313
  0.970524   0.591123
  0.825881   0.581318
  0.890492   0.491587
  0.905080   0.681288
  0.240316   0.985149
  0.958868   0.692984
  0.273040   0.975806
  0.947689   0.801667
  0.611698   0.806283
  0.201939   0.992583
  0.929534   0.679939
  0.500083   0.900971
  0.525370   0.893687
  0.956473   0.441873
  0.560000   0.915803
  0.893653   0.633754
  0.745506   0.720166
  0.826611   0.856666
  0.871171   0.773922
  0.908299   0.783773
  0.970182   0.851225
  0.777947   0.961210
  0.441420   0.943283
  0.761928   0.726829
  0.462900   0.956816
  0.336883   0.995489
  0.563274   0.948068
  0.890092   0.773760
  0.895143   0.660917
  0.769251   0.800063
  0.595100   0.840070
  0.855891   0.957508
  0.980913   0.200967
  0.649066   0.845439
  0.578144   0.859293
  0.942373   0.466839
  0.503653   0.892588
  0.925425   0.625997
  0.809580   0.618362
  0.888199   0.967051
  0.200274   0.998466
  0.595222   0.897341
  0.950909   0.929807
  0.808575   0.715847
  0.962485   0.488917
  0.666321   0.857727
  0.812632   0.913725
  0.974750   0.615933
  0.986329   0.231323
  0.990977   0.348826
  0.724501   0.696488
  0.645614   0.829628
  0.908343   0.517362
  0.896223   0.818070
  0.899952   0.501411
  0.998361   0.449552
  0.992762   0.357803
  0.590166   0.918804
  0.979944   0.924623
  0.888602   0.738598
  0.969652   0.947133
  0.469739   0.899250
  0.321710   0.976518
  0.915445   0.879261
  0.530195   0.986737
  0.959862   0.402142
  0.792879   0.917106
  0.984918   0.523380
  0.944248   0.974863
  0.540184   0.866091
  0.607544   0.993465
  0.798950   0.950093
  0.681374   0.844730
  0.920804   0.950119
  0.916137   0.510913
  0.908127   0.882687
  0.661205   0.877821
  0.556487   0.882877
  0.947015   0.483438
  0.632406   0.849213
  0.723374   0.742313
  0.940793   0.915279
  0.888124   0.704979
  0.943164   0.763488
  0.931423   0.418582
  0.967832   0.355601
  0.821728   0.779316
  0.550538   0.891391
  0.458790   0.888684
  0.917527   0.871404
  0.685839   0.895009
  0.094187   0.999334
  0.981301   0.726656
  0.909122   0.607928
  0.936263   0.769566
  0.971733   0.915422
  0.936856   0.745166
  0.525137   0.980455
  0.773474   0.783111
  0.322245   0.979496
  0.385255   0.975906
  0.439931   0.920902
  0.456653   0.973304
  0.832329   0.945806
  0.871997   0.661955
  0.823100   0.836371
  0.894963   0.635665
  0.905780   0.436275
  0.479677   0.925263
  0.896261   0.458260
  0.969097   0.606017
  0.835899   0.952677
  0.825837   0.842337
  0.382398   0.965357
  0.719570   0.818548
  0.991693   0.376179
  0.987716   0.542547
  0.584751   0.903169
  0.565946   0.853592
  0.814540   0.979135
  0.983182   0.346957
  0.980148   0.339221
  0.999989   0.816613
  0.806548   0.656090
  0.841954   0.726618
  0.616101   0.804472
  0.881693   0.621489
  0.542563   0.860059
  0.403280   0.924681
  0.946807   0.988095
  0.911670   0.431355
  0.429699   0.959071
  0.975890   0.777609
  0.473368   0.893244
  0.613851   0.986673
  0.806504   0.916037
  0.828400   0.914432
  0.850521   0.713350
  0.960870   0.348884
  0.778835   0.879115
  0.618662   0.846153
  0.965126   0.880694
  0.822328   0.871506
  0.986572   0.312618
  0.544951   0.990331
  0.702434   0.810436
  0.690831   0.799244
  0.779066   0.758107
  0.897887   0.795149
  0.724331   0.838274
  0.470573   0.921552
  0.523291   0.954176
  0.339203   0.992268
  0.953748   0.638430
  0.879381   0.749345
  0.857905   0.811509
  0.551850   0.939971
  0.970385   0.254279
  0.718744   0.927173
  0.992248   0.716661
  0.929050   0.548936
  0.969158   0.637462
  0.828564   0.681593
  0.929101   0.397980
  0.488126   0.935344
  0.322066   0.966704
  0.846667   0.931268
  0.814225   0.673553
  0.767695   0.650645
  0.822030   0.863662
  0.572137   0.905617
  0.707377   0.883707
  0.629789   0.856244
  0.900149   0.798010
  0.552862   0.954240
  0.719098   0.887916
  0.961781   0.659016
  0.923038   0.507261
  0.536143   0.957828
  0.833026   0.664824
  0.694580   0.804639
  0.713386   0.884427
  0.557385   0.971357
  0.836372   0.905395
  0.975537   0.851724
  0.785199   0.839561
  0.998759   0.135573
  0.621875   0.850284
  0.726535   0.878672
  0.575230   0.889849
  0.688404   0.998738
  0.781281   0.984929
  0.880031   0.681664
  0.723915   0.840733
  0.615695   0.980582
  0.997575   0.247986
  0.895609   0.508856
  0.678813   0.809278
  0.677501   0.761018
  0.758059   0.691149
  0.701015   0.960672
  0.786155   0.904569
  0.995631   0.575602
  0.568325   0.831680
  0.936972   0.689275
  0.464211   0.992084
  0.902454   0.540855
  0.650260   0.924357
  0.931378   0.667916
  0.467365   0.999316
  0.597304   0.885148
  0.730938   0.870302
  0.894028   0.936728
  0.590944   0.988465
  0.613135   0.951673
  0.772887   0.907062
  0.998971   0.712075
  0.588140   0.867961
  0.827667   0.594771
  0.762836   0.977582
  0.975751   0.453983
  0.597603   0.921346
  0.916036   0.814860
  0.750265   0.697591
  0.458257   0.930786
  0.732544   0.867644
  0.598669   0.835115
  0.781085   0.700804
  0.917144   0.442683
  0.914764   0.441609
  0.730342   0.860094
  0.652870   0.789912
  0.995438   0.323620
  0.741060   0.992709
  0.891506   0.544909
  0.820586   0.582618
  0.995604   0.122753
  0.996112   0.654747
  0.298921   0.968000
  0.525547   0.868130
  0.994994   0.868057
  0.553391   0.848290
  0.213185   0.995300
  0.999376   0.520437
  0.841886   0.584798
  0.932049   0.949181
  0.961888   0.445533
  0.816486   0.677854
  0.693093   0.818525
  0.948711   0.987442
  0.974804   0.529842
  0.720464   0.840238
  0.919782   0.775199
  0.769142   0.963668
  0.956142   0.874648
  0.791511   0.921558
  0.983358   0.302288
  0.596415   0.950839
  0.712261   0.976772
  0.598850   0.873914
  0.878852   0.868490
  0.873147   0.978452
  0.843849   0.569047
  0.973204   0.638046
  0.631515   0.864283
  0.907273   0.535340
  0.764381   0.955172
  0.962836   0.382243
  0.747770   0.770150
  0.904259   0.877138
  0.947791   0.518694
  0.922034   0.630314
  0.635438   0.806422
  0.356993   0.975250
  0.739746   0.905630
  0.904233   0.437398
  0.962667   0.539033
  0.575944   0.891539
  0.839508   0.609919
  0.921018   0.557669
  0.989372   0.367583
  0.790369   0.735731
  0.479318   0.896838
  0.745393   0.819689
  0.395250   0.964445
  0.762700   0.694935
  0.779610   0.912454
  0.236924   0.977555
  0.760205   0.763026
  0.709515   0.820837
  0.785902   0.652401
  0.769785   0.776564
  0.942070   0.371755
  0.412327   0.981817
  0.630094   0.991853
  0.864918   0.680802
  0.661093   0.985421
  0.963328   0.658793
  0.841944   0.546722
  0.910449   0.919419
  0.447962   0.899201
  0.935204   0.970461
  0.834346   0.851861
  0.972961   0.549942
  0.625213   0.947375
  0.765323   0.786798
  0.815174   0.632115
  0.948411   0.944279
  0.693101   0.944905
  0.966001   0.583875
  0.742488   0.993608
  0.230142   0.994767
  0.250192   0.973370
  0.892006   0.937532
  0.826897   0.665774
  0.575174   0.955584
  0.449152   0.895089
  0.760634   0.980840
  0.974168   0.837699
  0.986905   0.916916
  0.562554   0.849237
  0.273576   0.989029
  0.887177   0.790237
  0.659479   0.862520
  0.979626   0.579416
  0.668114   0.987683
  0.989426   0.283111
  0.800068   0.750503
  0.702086   0.951421
  0.972710   0.331161
  0.817793   0.642121
  0.928209   0.409872
  0.832744   0.935959
  0.444039   0.967143
  0.887068   0.957716
  0.525136   0.954699
  0.600819   0.970049
  0.438268   0.970315
  0.850948   0.888855
  0.991322   0.151539
  0.918302   0.906128
  0.991506   0.243104
  0.810000   0.673216
  0.296898   0.972044
  0.383352   0.992509
  0.653416   0.956993
  0.187481   0.987511
  0.260843   0.981133
  0.894919   0.906616
  0.611291   0.960167
  0.633898   0.920885
  0.783593   0.849857
  0.919839   0.736762
  0.851284   0.534180
  0.316475   0.990659
  0.725531   0.994274
  0.766165   0.940137
  0.874497   0.677999
  0.476226   0.929268
  0.490329   0.965426
  0.921314   0.524009
  0.957716   0.332245
  0.706725   0.920169
  0.975214   0.426548
  0.988905   0.520004
  0.988414   0.272999
  0.460044   0.953428
  0.875450   0.685804
  0.465162   0.984283
  0.845394   0.542967
  0.638360   0.913187
  0.929838   0.788789
  0.339439   0.951589
  0.832545   0.585279
  0.870622   0.540035
  0.667035   0.855120
  0.987374   0.789062
  0.727838   0.774310
  0.820229   0.580669
  0.984818   0.842557
  0.812862   0.770403
  0.990805   0.452084
  0.412503   0.946148
  0.871362   0.976230
  0.899724   0.668313
  0.549226   0.839468
  0.652039   0.826644
  0.991926   0.293723
  0.967147   0.834278
  0.368711   0.930442
  0.934636   0.430086
  0.816851   0.815833
  0.843566   0.810904
  0.864911   0.559548
  0.251024   0.968656
  0.713733   0.714970
  0.986717   0.744317
  0.892840   0.967598
  0.730705   0.950966
  0.800482   0.701861
  0.602184   0.898533
  0.455103   0.912832
  0.973384   0.666678
  0.871045   0.650284
  0.946903   0.590505
  0.616103   0.843048
  0.759973   0.868820
  0.598019   0.911703
  0.990956   0.996115
  0.711003   0.831432
  0.249419   0.978506
  0.750565   0.747955
  0.859754   0.889333
  0.951886   0.346994
  0.824039   0.627183
  0.932682   0.590116
  0.966817   0.292582
  0.882640   0.534415
  0.911873   0.856918
  0.974149   0.526827
  0.603666   0.816237
  0.572076   0.879784
  0.321530   0.953982
  0.918596   0.846234
  0.818701   0.909082
  0.957857   0.702257
  0.837864   0.980448
  0.732360   0.769975
  0.971421   0.669485
  0.989212   0.692459
  0.981033   0.215873
  0.224786   0.985228
  0.722851   0.963764
  0.978366   0.398272
  0.674718   0.984320
  0.925853   0.816583
  0.951772   0.434683
  0.720232   0.943849
  0.729738   0.712635
  0.988896   0.382127
  0.620454   0.977753
  0.783759   0.634111
  0.977614   0.753872
  0.982918   0.898386
  0.222586   0.996539
  0.826965   0.803008
  0.947726   0.424184
  0.692083   0.831414
  0.574160   0.902434
  0.874968   0.590153
  0.787690   0.709916
  0.941665   0.558079
  0.944249   0.997230
  0.513952   0.989493
  0.889926   0.990179
  0.859094   0.800088
  0.740750   0.786271
  0.904919   0.971173
  0.499665   0.877305
  0.560893   0.922803
  0.455523   0.981875
  0.254952   0.983572
  0.895929   0.885736
  0.889150   0.949601
  0.944150   0.336099
  0.817456   0.985292
  0.906934   0.832499
  0.988770   0.252243
  0.815891   0.675308
  0.508831   0.920084
  0.860046   0.790863
  0.858908   0.659554
  0.274290   0.998185
  0.780320   0.835317
  0.948682   0.492510
  0.736585   0.779312
  0.974579   0.747076
  0.963672   0.432627
  0.900907   0.546321
  0.775382   0.838440
  0.711001   0.795157
  0.204855   0.993363
  0.828806   0.745983
  0.935259   0.895851
  0.572495   0.918484
  0.953865   0.607459
  0.798468   0.858887
  0.291961   0.982845
  0.294042   0.965854
  0.963196   0.436644
  0.683874   0.876058
  0.586774   0.904948
  0.951148   0.948546
  0.521030   0.956034
  0.418989   0.941433
  0.373235   0.967587
  0.402388   0.934328
  0.701189   0.886748
  0.823165   0.934255
  0.800185   0.704591
  0.852488   0.758778
  0.782349   0.943159
  0.942680   0.623955
  0.669052   0.762129
  0.984677   0.464656
  0.586055   0.825072
  0.988206   0.784825
  0.750920   0.708016
  0.609865   0.997272
  0.589625   0.824265
  0.988454   0.954488
  0.493365   0.986115
  0.865390   0.609149
  0.961834   0.549124
  0.548456   0.898942
  0.873085   0.936629
  0.928105   0.655372
  0.968809   0.772741
  0.935126   0.670321
  0.639664   0.836091
  0.880202   0.559475
  0.659177   0.791322
  0.919288   0.468408
  0.992928   0.132963
  0.706001   0.765606
  0.936784   0.522131
  0.460639   0.960818
  0.893408   0.505187
  0.630145   0.840748
  0.692923   0.958801
  0.567075   0.825133
  0.903049   0.549842
  0.947037   0.843114
  0.480213   0.943025
  0.493302   0.934446
  0.224727   0.988845
  0.837380   0.839428
  0.983530   0.192597
  0.979329   0.581231
  0.208425   0.991680
  0.803288   0.857496
  0.940466   0.409201
  0.090141   0.997898
  0.663700   0.808862
  0.231569   0.978206
  0.702377   0.849233
  0.883258   0.913738
  0.773309   0.998684
  0.437912   0.985224
  0.667096   0.888561
  0.836852   0.973004
  0.693158   0.909615
  0.893888   0.575786
  0.663701   0.819036
  0.746351   0.916534
  0.335512   0.944812
  0.778167   0.645505
  0.778166   0.639761
  0.958686   0.637343
  0.815787   0.924776
  0.800497   0.959372
  0.860110   0.872874
  0.977482   0.539041
  0.983503   0.732720
  0.811840   0.601016
  0.916760   0.992346
  0.673289   0.972589
  0.465098   0.906897
  0.847081   0.885192
  0.724632   0.893897
  0.773061   0.834046
  0.807497   0.596808
  0.215921   0.981543
  0.387573   0.932441
  0.543813   0.862136
  0.925501   0.887686
  0.948338   0.716501
  0.975663   0.962269
  0.858210   0.927349
  0.794667   0.967069
  0.661442   0.848827
  0.783715   0.903825
  0.580402   0.822811
  0.977761   0.236083
  0.851647   0.627932
  0.319151   0.965712
  0.866893   0.864623
  0.721114   0.766898
  0.981272   0.240161
  0.500321   0.892967
  0.828920   0.656361
  0.991722   0.870125
  0.802025   0.639176
  0.852141   0.936452
  0.624560   0.979931
  0.353362   0.947899
  0.675246   0.858562
  0.569218   0.843063
  0.739808   0.954528
  0.815909   0.975621
  0.905747   0.881769
  0.895849   0.532580
  0.648831   0.898836
  0.959347   0.745465
  0.539292   0.882382
  0.917576   0.704732
  0.905189   0.515687
  0.868787   0.699624
  0.880700   0.923633
  0.496635   0.948851
  0.977463   0.214066
  0.740939   0.953384
  0.956684   0.995538
  0.948505   0.523875
  0.742834   0.807059
  0.675067   0.858480
  0.534774   0.944342
  0.369131   0.981382
  0.990030   0.427307
  0.487528   0.891114
  0.960906   0.941489
  0.871766   0.777486
  0.544472   0.940659
  0.663053   0.934255
  0.686071   0.791476
  0.952085   0.696836
  0.726346   0.694819
  0.819653   0.904170
  0.970904   0.976611
  0.901093   0.666804
  0.968686   0.709366
  0.894899   0.560487
  0.618010   0.892429
  0.766749   0.756682
  0.769491   0.841013
  0.901348   0.949236
  0.815602   0.829565
  0.981749   0.247492
  0.593554   0.853949
  0.927173   0.990300
  0.963752   0.783325
  0.879442   0.777480
  0.960298   0.732374
  0.726002   0.914967
  0.847731   0.817675
  0.994912   0.483306
  0.920322   0.857364
  0.680900   0.893311
  0.870087   0.544986
  0.819715   0.946407
  0.775727   0.641529
  0.954045   0.638463
  0.691785   0.822318
  0.941002   0.420436
  0.301601   0.999716
  0.293864   0.973278
  0.722671   0.931343
  0.926399   0.980408
  0.725455   0.722160
  0.642458   0.785064
  0.547917   0.846792
  0.976069   0.793719
  0.641149   0.798954
  0.756052   0.971487
  0.994802   0.635336
  0.788357   0.916181
  0.059618   0.999272
  0.825834   0.799558
  0.990717   0.975146
  0.278513   0.973837
  0.981535   0.654836
  0.501571   0.903223
  0.856537   0.822810
  0.962148   0.818196
  0.543285   0.994351
  0.923871   0.506742
  0.948764   0.874475
  0.738676   0.931653
  0.852910   0.863963
  0.504427   0.910493
  0.968871   0.822750
  0.530428   0.905964
  0.488962   0.986259
  0.728904   0.689049
  0.842657   0.542096
  0.808865   0.591111
  0.923634   0.513712
  0.152614   0.988998
  0.926915   0.658115
  0.526979   0.931820
  0.905497   0.695335
  0.846713   0.713294
  0.980036   0.469040
  0.972670   0.666248
  0.630388   0.925158
  0.923518   0.573767
  0.848097   0.964216
  0.632521   0.784878
  0.932992   0.791130
  0.991772   0.704713
  0.914768   0.511992
  0.762524   0.732678
  0.841776   0.731451
  0.712782   0.732718
  0.775438   0.792412
  0.954746   0.417423
  0.621933   0.820597
  0.781509   0.826518
  0.990805   0.464285
  0.564403   0.923868
  0.598728   0.825887
  0.675838   0.800962
  0.887826   0.689450
  0.590224   0.898446
  0.834928   0.639855
  0.990953   0.942661
  0.877178   0.727645
  0.521506   0.953183
  0.836789   0.917712
  0.992184   0.641937
  0.912222   0.716098
  0.452311   0.992794
  0.885856   0.576270
  0.427558   0.962789
  0.595693   0.818636
  0.932201   0.501587
  0.624372   0.817608
  0.825948   0.709161
  0.903253   0.978520
  0.977436   0.765357
  0.817977   0.731126
  0.046231   0.999514
  0.954208   0.367549
  0.399831   0.962778
  0.987255   0.794880
  0.540605   0.948094
  0.983609   0.520067
  0.690834   0.845294
  0.847376   0.851556
  0.974652   0.980355
  0.465756   0.960259
  0.884201   0.773383
  0.676500   0.929096
  0.638362   0.945893
  0.749558   0.819667
  0.750638   0.970739
  0.833339   0.920708
  0.625510   0.944957
  0.900606   0.481110
  0.827908   0.656915
  0.777167   0.849561
  0.460282   0.952820
  0.972615   0.735630
  0.961606   0.715745
  0.590101   0.828622
  0.851168   0.579521
  0.643713   0.886740
  0.911017   0.469531
  0.671374   0.781636
  0.957161   0.998047
  0.843559   0.688194
  0.933281   0.649662
  0.994643   0.959398
  0.778356   0.831283
  0.572374   0.884723
  0.737543   0.885409
  0.996021   0.132988
  0.416371   0.949326
  0.843373   0.574849
  0.456354   0.947890
  0.787278   0.785254
  0.526023   0.875100
  0.811668   0.698818
  0.626404   0.979139
  0.892656   0.863167
  0.913710   0.716456
  0.401019   0.920278
  0.959114   0.831599
  0.713559   0.778892
  0.983542   0.396224
  0.979873   0.722610
  0.910628   0.925567
  0.766227   0.971512
  0.725397   0.739004
  0.770512   0.993331
  0.757949   0.841551
  0.285594   0.973367
  0.752185   0.966635
  0.941865   0.917814
  0.703036   0.933962
  0.219193   0.984757
  0.863846   0.663185
  0.545780   0.925799
  0.156780   0.993366
  0.781680   0.695876
  0.991510   0.311123
  0.938297   0.953276
  0.466353   0.995104
  0.712857   0.988600
  0.849564   0.627579
  0.718150   0.947887
  0.723970   0.765771
  0.953700   0.831602
  0.738126   0.684047
  0.769678   0.975121
  0.866298   0.878536
  0.792398   0.830174
  0.726168   0.700849
  0.934962   0.911769
  0.964198   0.268003
  0.932569   0.686673
  0.908530   0.662718
  0.772171   0.884679
  0.804169   0.663649
  0.942671   0.470284
  0.939226   0.572502
  0.928587   0.757559
  0.301065   0.995212
  0.817551   0.582748
  0.251264   0.988538
  0.883066   0.692452
  0.935319   0.898542
  0.799298   0.805547
  0.954899   0.994818
  0.943815   0.691315
  0.372163   0.941197
  0.695591   0.800156
  0.976599   0.695635
  0.884861   0.853134
  0.973441   0.625189
  0.557684   0.995675
  0.240077   0.978917
  0.655254   0.856939
  0.578023   0.830917
  0.899788   0.732214
  0.602715   0.837952
  0.974456   0.681572
  0.560890   0.871274
  0.505319   0.888779
  0.877903   0.908058
  0.928238   0.896391
  0.636925   0.800871
  0.946591   0.350226
  0.610817   0.995145
  0.910185   0.476523
  0.882354   0.722082
  0.210031   0.985954
  0.935783   0.709094
  0.640675   0.824314
  0.990881   0.735240
  0.749620   0.858476
  0.658713   0.990451
  0.509185   0.870465
  0.908833   0.761722
  0.341167   0.992717
  0.597424   0.904821
  0.847371   0.760316
  0.715230   0.875033
  0.681665   0.746815
  0.818700   0.882676
  0.597720   0.871865
  0.855227   0.794711
  0.757717   0.954498
  0.895275   0.886831
  0.961087   0.986487
  0.880995   0.876355
  0.897417   0.886869
  0.608962   0.816127
  0.902097   0.547273
  0.517457   0.897063
  0.945958   0.720898
  0.997045   0.333117
  0.700354   0.842845
  0.358301   0.971863
  0.578976   0.855823
  0.874548   0.529234
  0.834763   0.855303
  0.672507   0.819913
  0.776865   0.769942
  0.559284   0.889530
  0.808940   0.858020
  0.934848   0.993909
  0.545362   0.906618
  0.823512   0.770519
  0.932679   0.531911
  0.580107   0.864688
  0.815906   0.930393
  0.897417   0.879536
  0.913097   0.415522
  0.673699   0.864098
  0.894433   0.739439
  0.757585   0.736584
  0.805373   0.899744
  0.993828   0.259511
  0.782866   0.637238
  0.997359   0.608614
  0.982594   0.455561
  0.671798   0.901331
  0.957212   0.863268
  0.945855   0.990370
  0.336110   0.999959
  0.949244   0.940339
  0.265185   0.972310
  0.704408   0.977955
  0.980441   0.270476
  0.882189   0.950037
  0.833279   0.925538
  0.997006   0.684726
  0.270125   0.985834
  0.865946   0.962623
  0.797813   0.848602
  0.572018   0.910676
  0.973581   0.976239
  0.775608   0.651854
  0.906579   0.877141
  0.330218   0.969371
  0.948272   0.605486
  0.724088   0.739432
  0.639251   0.885227
  0.635147   0.914925
  0.468370   0.902379
  0.916669   0.461509
  0.573385   0.886994
  0.878238   0.546049
  0.644837   0.770681
  0.838153   0.840757
  0.596766   0.850380
  0.946610   0.675725
  0.833580   0.981287
  0.937077   0.459655
  0.850214   0.541889
  0.529832   0.883586
  0.891116   0.979932
  0.960358   0.742758
  0.955180   0.717782
  0.755335   0.909088
  0.970509   0.344068
  0.941246   0.523918
  0.496577   0.974163
  0.896168   0.901532
  0.841367   0.854006
  0.533404   0.924540
  0.773653   0.780008
  0.896146   0.533161
  0.830120   0.831285
  0.870385   0.558010
  0.856116   0.743710
  0.412443   0.929682
  0.768178   0.765736
  0.773001   0.821502
  0.983480   0.352358
  0.857243   0.689511
  0.846957   0.813576
  0.367584   0.984641
  0.860922   0.512302
  0.756333   0.685082
  0.869637   0.984822
  0.909770   0.504589
  0.504070   0.903050
  0.781440   0.662478
  0.885911   0.509376
  0.699873   0.764545
  0.698040   0.962499
  0.748907   0.884311
  0.873363   0.603791
  0.909610   0.822000
  0.860989   0.634627
  0.985620   0.321138
  0.986094   0.283937
  0.993730   0.620615
  0.668576   0.753664
  0.821127   0.684310
  0.812931   0.931782
  0.744505   0.892689
  0.675609   0.957111
  0.413454   0.922264
  0.807505   0.736853
  0.445647   0.990516
  0.595047   0.949343
  0.897955   0.935976
  0.940360   0.624624
  0.797515   0.837464
  0.937699   0.909000
  0.566724   0.936808
  0.932194   0.383049
  0.901675   0.445641
  0.711361   0.850286
  0.754976   0.886994
  0.969144   0.399353
  0.907705   0.794540
  0.832435   0.730774
  0.723384   0.917842
  0.379600   0.945086
  0.864079   0.578514
  0.943761   0.788559
  0.578387   0.951224
  0.640208   0.983184
  0.844809   0.698818
  0.803344   0.798570
  0.876280   0.632668
  0.496158   0.926838
  0.749192   0.676937
  0.940309   0.780543
  0.863605   0.605690
  0.991580   0.493264
  0.828571   0.793706
  0.516387   0.916982
  0.939633   0.408265
  0.704274   0.727804
  0.529713   0.887290
  0.686793   0.935599
  0.607536   0.850282
  0.682622   0.820143
  0.853333   0.962010
  0.724577   0.959421
  0.988911   0.621496
  0.488659   0.893132
  0.867767   0.552425
  0.502941   0.923025
  0.485448   0.918342
  0.221038   0.989224
  0.795138   0.883661
  0.764847   0.785619
  0.836779   0.737956
  0.832266   0.898896
  0.619800   0.986908
  0.969322   0.388001
  0.830351   0.713266
  0.859987   0.809264
  0.683510   0.759672
  0.713563   0.851121
  0.797510   0.747210
  0.973848   0.465734
  0.957189   0.468608
  0.799479   0.850881
  0.556310   0.901218
  0.505200   0.900098
  0.951088   0.930014
  0.817799   0.742377
  0.503356   0.899231
  0.579518   0.963400
  0.534651   0.887721
  0.920667   0.655490
  0.828814   0.873968
  0.776325   0.701270
  0.814401   0.635192
  0.668229   0.921133
  0.978873   0.922503
  0.795677   0.938293
  0.883794   0.924629
  0.899604   0.646034
  0.643294   0.834242
  0.749075   0.706218
  0.922396   0.710957
  0.518942   0.865068
  0.965537   0.780703
  0.892578   0.550207
  0.756332   0.669516
  0.399948   0.932848
  0.804009   0.973389
  0.911802   0.662934
  0.939948   0.698405
  0.890965   0.454746
  0.910970   0.669026
  0.860465   0.836513
  0.821067   0.666357
  0.704398   0.811003
  0.987457   0.193230
  0.680065   0.855802
  0.457131   0.993806
  0.866942   0.695893
  0.875744   0.630590
  0.795076   0.842261
  0.874014   0.547786
  0.644123   0.768686
  0.940899   0.688366
  0.584567   0.815447
  0.997112   0.462979
  0.998321   0.780327
  0.949688   0.401436
  0.807861   0.724636
  0.955906   0.906248
  0.948868   0.629992
  0.851827   0.651344
  0.975650   0.749001
  0.467418   0.891365
  0.705772   0.916292
  0.914549   0.816850
  0.933989   0.559768
  0.572911   0.921127
  0.737532   0.701340
  0.912333   0.580120
  0.612184   0.975541
  0.923657   0.895154
  0.853023   0.762233
  0.785438   0.849503
  0.776328   0.741075
  0.906640   0.893262
  0.612353   0.808922
  0.960284   0.485194
  0.648055   0.868220
  0.383231   0.962889
  0.987525   0.340771
  0.815771   0.668040
  0.716709   0.727317
  0.861721   0.944457
  0.496040   0.944255
  0.620093   0.901508
  0.649537   0.772494
  0.913337   0.453545
  0.888649   0.528349
  0.968730   0.453364
  0.975097   0.456831
  0.646147   0.784278
  0.878965   0.763943
  0.585589   0.993678
  0.968723   0.329418
  0.823451   0.744920
  0.874272   0.896078
  0.685058   0.775799
  0.876172   0.815909
  0.716656   0.837177
  0.426841   0.918281
  0.854213   0.756963
  0.659835   0.849856
  0.911620   0.597150
  0.920787   0.673207
  0.604082   0.812181
  0.850216   0.579323
  0.675073   0.943842
  0.826544   0.716692
  0.954147   0.341810
  0.794242   0.818041
  0.899421   0.574239
  0.671315   0.789143
  0.922471   0.966346
  0.339025   0.991246
  0.878134   0.799407
  0.625272   0.950019
  0.962799   0.766817
  0.794646   0.618436
  0.882826   0.655642
  0.591895   0.979905
  0.950656   0.680832
  0.349495   0.968842
  0.913775   0.821844
  0.739970   0.683982
  0.781325   0.721836
  0.567376   0.885758
  0.930126   0.627904
  0.843858   0.729386
  0.787870   0.724281
  0.996767   0.666676
  0.574755   0.903180
  0.899202   0.886227
  0.957953   0.318426
  0.785729   0.746298
  0.706012   0.949111
  0.932703   0.940354
  0.929112   0.580952
  0.565774   0.955378
  0.892165   0.624403
  0.935264   0.984438
  0.414708   0.999819
  0.868199   0.814904
  0.990449   0.479265
  0.881329   0.489599
  0.990708   0.826656
  0.612059   0.874059
  0.783717   0.933682
  0.728015   0.743094
  0.991927   0.323870
  0.870029   0.573616
  0.759012   0.712791
  0.903015   0.973039
  0.851760   0.528479
  0.974914   0.376974
  0.807995   0.966124
  0.641505   0.781736
  0.493657   0.896238
  0.458732   0.916101
  0.917627   0.554559
  0.465633   0.886811
  0.894717   0.508586
  0.731950   0.887795
  0.943415   0.980657
  0.689167   0.830993
  0.946140   0.775882
  0.741535   0.980426
  0.963102   0.857596
  0.619739   0.946252
  0.997972   0.923033
  0.734795   0.701503
  0.824111   0.841851
  0.817079   0.645925
  0.856343   0.553352
  0.785068   0.640257
  0.335513   0.959244
  0.764491   0.802681
  0.652161   0.873936
  0.906279   0.828436
  0.224668   0.997706
  0.747111   0.697121
  0.336167   0.953876
  0.798281   0.715175
  0.948688   0.605985
  0.789669   0.973386
  0.894671   0.734997
  0.930137   0.809750
  0.946416   0.413115
  0.783600   0.971400
  0.804760   0.608749
  0.246207   0.998488
  0.942986   0.770019
  0.882464   0.576783
  0.996762   0.575193
  0.955064   0.756274
  0.918605   0.992478
  0.833158   0.893195
  0.992760   0.319806
  0.974204   0.454964
  0.933095   0.523011
  0.727017   0.972852
  0.718501   0.841612
  0.978393   0.848343
  0.474741   0.975336
  0.851548   0.959170
  0.797029   0.667775
  0.908102   0.469196
  0.782750   0.684966
  0.989110   0.975925
  0.592245   0.855724
  0.558279   0.993838
  0.943734   0.334997
  0.294459   0.977506
  0.948509   0.584404
  0.657691   0.812126
  0.875209   0.629420
  0.665492   0.931274
  0.920890   0.402067
  0.898410   0.580123
  0.693340   0.961727
  0.738376   0.888959
  0.734802   0.824604
  0.833153   0.806619
  0.851834   0.779532
  0.960154   0.302278
  0.391262   0.942964
  0.691968   0.912373
  0.824824   0.814294
  0.840879   0.657230
  0.832080   0.769969
  0.865280   0.754002
  0.830349   0.680646
  0.624846   0.789486
  0.879074   0.598428
  0.426426   0.938928
  0.950192   0.883945
  0.540190   0.969407
  0.706125   0.834906
  0.981983   0.193046
  0.301540   0.986663
  0.837202   0.855844
  0.580946   0.955824
  0.525786   0.889240
  0.948054   0.945977
  0.426606   0.967107
  0.966003   0.607111
  0.717548   0.825566
  0.832312   0.669074
  0.304930   0.954593
  0.845576   0.594757
  0.810541   0.754191
  0.882528   0.651508
  0.917526   0.861762
  0.631284   0.989252
  0.367522   0.942693
  0.459982   0.916684
  0.220979   0.996731
  0.992021   0.888737
  0.437733   0.985041
  0.576776   0.877535
  0.502409   0.991510
  0.934068   0.876312
  0.988866   0.866103
  0.985264   0.327282
  0.947960   0.364096
  0.912945   0.867905
  0.887516   0.486433
  0.479440   0.946619
  0.820129   0.914247
  0.753431   0.922137
  0.843380   0.688558
  0.933929   0.541424
  0.386088   0.988605
  0.961349   0.391559
  0.786986   0.878363
  0.798577   0.691588
  0.892663   0.993390
  0.646515   0.970984
  0.879385   0.821043
  0.776204   0.664895
  0.985564   0.374594
  0.413812   0.943137
  0.803652   0.982577
  0.873721   0.630330
  0.952614   0.588249
  0.983363   0.375002
  0.665606   0.842372
  0.752591   0.801919
  0.504011   0.908241
  0.998595   0.389026
  0.808157   0.692580
  0.734627   0.877436
  0.606173   0.948517
  0.903134   0.969107
  0.781868   0.854489
  0.396560   0.985015
  0.687273   0.995859
  0.918934   0.519577
  0.790488   0.731001
  0.290177   0.999985
  0.954760   0.644270
  0.751344   0.846675
  0.805197   0.948631
  0.645439   0.893855
  0.917322   0.429930
  0.980050   0.702586
  0.370379   0.963651
  0.692863   0.940559
  0.974686   0.550295
  0.991281   0.454961
  0.460579   0.954621
  0.919370   0.851601
  0.864861   0.715388
  0.885748   0.761796
  0.355206   0.952264
  0.584577   0.981828
  0.587304   0.810581
  0.929647   0.585370
  0.948815   0.735767
  0.706598   0.787037
  0.671208   0.986620
  0.625213   0.957831
  0.974161   0.721892
  0.774779   0.706978
  0.636931   0.899914
  0.997710   0.508085
  0.738739   0.981928
  0.686486   0.763159
  0.928122   0.953518
  0.819162   0.653854
  0.831187   0.763767
  0.987050   0.356920
  0.811198   0.808101
  0.747304   0.932096
  0.555356   0.872602
  0.873081   0.871655
  0.901388   0.619988
  0.642343   0.861703
  0.634079   0.970438
  0.800678   0.998625
  0.949868   0.439147
  0.907468   0.813845
  0.740401   0.922254
  0.885738   0.592825
  0.934179   0.738385
  0.677748   0.904275
  0.869277   0.942490
  0.423510   0.926799
  0.872602   0.820332
  0.389418   0.949775
  0.331287   0.945955
  0.660549   0.839823
  0.902540   0.992278
  0.957319   0.666041
  0.860999   0.814869
  0.599566   0.905087
  0.672205   0.748058
  0.934822   0.560039
  0.572912   0.937884
  0.736296   0.920052
  0.965282   0.495742
  0.938094   0.544627
  0.739796   0.749125
  0.995675   0.315280
  0.910082   0.742739
  0.792683   0.629460
  0.328613   0.996526
  0.996992   0.448456
  0.931853   0.661026
  0.862470   0.526872
  0.609268   0.973000
  0.997901   0.723196
  0.759128   0.658184
  0.987255   0.802878
  0.946974   0.784418
  0.880750   0.762917
  0.988197   0.622177
  0.935718   0.613591
  0.873067   0.630610
  0.918363   0.934568
  0.999377   0.530713
  0.921257   0.571954
  0.835583   0.642298
  0.462426   0.986300
  0.955491   0.940560
  0.999034   0.764353
  0.547146   0.884555
  0.848153   0.907333
  0.743662   0.733926
  0.789473   0.673421
  0.815604   0.852065
  0.662578   0.943689
  0.257927   0.985729
  0.986671   0.977302
  0.992957   0.626728
  0.425055   0.905383
  0.777467   0.893382
  0.770451   0.969555
  0.714220   0.888587
  0.487826   0.888259
  0.970173   0.695316
  0.777395   0.679583
  0.744748   0.981944
  0.861540   0.898489
  0.909659   0.642093
  0.911148   0.672247
  0.497707   0.958383
  0.984876   0.812182
  0.337713   0.948911
  0.685068   0.936498
  0.764912   0.875370
  0.947320   0.601953
  0.879806   0.907131
  0.927792   0.398463
  0.817096   0.934874
  0.435176   0.996845
  0.969406   0.811312
  0.996572   0.390213
  0.613373   0.960128
  0.876453   0.551747
  0.327303   0.974210
  0.784970   0.991358
  0.759069   0.670645
  0.999021   0.544018
  0.643777   0.960307
  0.872129   0.876301
  0.995350   0.841408
  0.547149   0.938769
  0.854756   0.886853
  0.263878   0.997775
  0.976902   0.785710
  0.805652   0.598766
  0.809825   0.736081
  0.760739   0.739159
  0.881746   0.496743
  0.763074   0.982359
  0.793472   0.881522
  0.740689   0.753175
  0.959637   0.615908
  0.573269   0.929940
  0.977346   0.259994
  0.899086   0.940044
  0.888948   0.542689
  0.966518   0.272084
  0.873016   0.776143
  0.905803   0.833307
  0.972000   0.402874
  0.879276   0.999032
  0.849626   0.671726
  0.992634   0.193577
  0.681664   0.733870
  0.978043   0.964063
  0.914297   0.597130
  0.452127   0.892213
  0.484083   0.985554
  0.964687   0.486872
  0.895159   0.936405
  0.764318   0.887585
  0.640674   0.803973
  0.836361   0.725240
  0.922645   0.895536
  0.933446   0.423812
  0.998224   0.143090
  0.972567   0.929068
  0.845242   0.989817
  0.745984   0.746209
  0.538343   0.937446
  0.651025   0.775396
  0.552027   0.925035
  0.784850   0.970950
  0.891645   0.873943
  0.683049   0.997338
  0.990527   0.789657
  0.994032   0.700648
  0.963426   0.306307
  0.835776   0.887619
  0.893493   0.940262
  0.977745   0.961010
  0.494197   0.977221
  0.958704   0.938274
  0.827726   0.585472
  0.983600   0.367859
  0.863068   0.588061
  0.948646   0.901009
  0.797570   0.752648
  0.992852   0.869607
  0.860399   0.722609
  0.771213   0.770091
  0.877232   0.630181
  0.791271   0.887096
  0.593977   0.965294
  0.921223   0.990228
  0.846954   0.761930
  0.973218   0.877697
  0.590584   0.940677
  0.956002   0.525203
  0.959341   0.649279
  0.648054   0.838887
  0.998272   0.959959
  0.671201   0.872880
  0.491282   0.968395
  0.870148   0.571625
  0.753423   0.785567
  0.747473   0.778178
  0.841470   0.578429
  0.654071   0.966277
  0.979403   0.827502
  0.895698   0.999889
  0.705585   0.762673
  0.739257   0.692458
  0.962364   0.450923
  0.823323   0.581500
  0.727373   0.960196
  0.688576   0.898212
  0.842260   0.856279
  0.982679   0.880907
  0.998874   0.071676
  0.979139   0.387767
  0.958583   0.904999
  0.320994   0.953524
  0.882830   0.719536
  0.690306   0.979348
  0.909610   0.811223
  0.889687   0.968826
  0.438920   0.923366
  0.580115   0.992657
  0.590280   0.833016
  0.501628   0.868622
  0.922461   0.799386
  0.274408   0.976433
  0.910089   0.870309
  0.870928   0.688745
  0.437315   0.956797
  0.897721   0.993708
  0.493482   0.959111
  0.985971   0.216116
  0.589153   0.902766
  0.867952   0.668392
  0.763531   0.671242
  0.939310   0.978017
  0.979569   0.614253
  0.883134   0.833528
  0.650797   0.943888
  0.917527   0.870715
  0.825779   0.859408
  0.755151   0.816999
  0.975535   0.813790
  0.946607   0.627687
  0.923866   0.412207
  0.961948   0.459948
  0.759386   0.994360
  0.743370   0.822167
  0.517160   0.902689
  0.921971   0.560927
  0.997459   0.290392
  0.628003   0.848982
  0.786924   0.825247
  0.357051   0.962460
  0.995759   0.721757
  0.815354   0.651191
  0.570952   0.986553
  0.988942   0.154871
  0.335693   0.992299
  0.864438   0.614382
  0.921131   0.440943
  0.937401   0.891538
  0.708568   0.905446
  0.945999   0.402308
  0.596770   0.908162
  0.968723   0.324996
  0.911276   0.812250
  0.960337   0.376140
  0.341346   0.995038
  0.857128   0.756045
  0.854397   0.848731
  0.997340   0.293274
  0.991608   0.950348
  0.499729   0.943476
  0.893944   0.515232
  0.604441   0.833007
  0.977115   0.367096
  0.682683   0.848285
  0.857655   0.612662
  0.543106   0.982420
  0.944045   0.559412
  0.790963   0.717521
  0.924352   0.591984
  0.470453   0.896072
  0.396201   0.951675
  0.868485   0.627824
  0.968304   0.285451
  0.954942   0.702815
  0.759724   0.685790
  0.978298   0.261812
  0.873853   0.854498
  0.479439   0.926928
  0.871054   0.811257
  0.991945   0.615755
  0.991788   0.979748
  0.617826   0.795574
  0.977797   0.829424
  0.832566   0.941497
  0.732955   0.782116
  0.875442   0.553311
  0.675782   0.874109
  0.738724   0.730389
  0.822865   0.890520
  0.972674   0.734189
  0.673288   0.954799
  0.309691   0.982083
  0.872170   0.565750
  0.769135   0.858286
  0.977956   0.504735
  0.850061   0.973173
  0.837793   0.779774
  0.774313   0.880719
  0.978245   0.370968
  0.859399   0.911928
  0.769856   0.964818
  0.660664   0.787877
  0.841849   0.957421
  0.868482   0.569205
  0.678816   0.858842
  0.783701   0.670333
  0.510672   0.862465
  0.724807   0.831361
  0.929647   0.581575
  0.753610   0.919128
  0.787031   0.635353
  0.959164   0.668129
  0.784906   0.908032
  0.750861   0.714021
  0.873787   0.736125
  0.842838   0.582093
  0.177366   0.986319
  0.925953   0.494259
  0.898955   0.728766
  0.837976   0.856351
  0.881642   0.753294
  0.616160   0.807155
  0.847956   0.600105
  0.957084   0.716409
  0.771995   0.922101
  0.994475   0.140700
  0.691482   0.733386
  0.662809   0.828847
  0.874192   0.551829
  0.911919   0.614299
  0.248408   0.998916
  0.783828   0.799661
  0.868065   0.574630
  0.802152   0.766368
  0.692976   0.850350
  0.606287   0.871926
  0.759555   0.845373
  0.970184   0.882734
  0.835527   0.706193
  0.991878   0.494588
  0.810775   0.693485
  0.807448   0.772206
  0.671622   0.953631
  0.674348   0.771544
  0.911983   0.704896
  0.411848   0.924460
  0.898177   0.662196
  0.786021   0.650903
  0.889562   0.873950
  0.707846   0.761550
  0.851760   0.527540
  0.239900   0.994542
  0.939952   0.773022
  0.984381   0.493589
  0.602009   0.972339
  0.905448   0.864386
  0.729862   0.783390
  0.743129   0.775997
  0.930547   0.709164
  0.964863   0.457809
  0.946417   0.430364
  0.918349   0.685494
  0.953735   0.430280
  0.721230   0.713168
  0.859218   0.868660
  0.509484   0.903697
  0.671028   0.965885
  0.621405   0.949940
  0.997036   0.180425
  0.398107   0.983009
  0.796978   0.810944
  0.985324   0.339521
  0.932499   0.514110
  0.821842   0.706677
  0.755633   0.928201
  0.893357   0.656011
  0.738490   0.806091
  0.968310   0.393118
  0.134943   0.992959
  0.655381   0.984898
  0.342235   0.946627
  0.966482   0.670886
  0.653228   0.803514
  0.666504   0.935039
  0.845699   0.670835
  0.876522   0.709854
  0.980175   0.804053
  0.691257   0.952499
  0.642943   0.937503
  0.663526   0.884891
  0.424762   0.982261
  0.852600   0.654693
  0.747110   0.672225
  0.918356   0.808806
  0.931183   0.388104
  0.857797   0.999705
  0.833343   0.989831
  0.911146   0.635807
  0.976351   0.527765
  0.921855   0.619126
  0.654952   0.775113
  0.957325   0.760380
  0.705701   0.720470
  0.941660   0.482711
  0.872950   0.664063
  0.605696   0.939762
  0.970662   0.910538
  0.887721   0.927343
  0.486998   0.979729
  0.537156   0.976948
  0.571540   0.871985
  0.448382   0.948099
  0.543701   0.980521
  0.427856   0.981581
  0.963329   0.665939
  0.878251   0.769687
  0.476406   0.957690
  0.572437   0.952600
  0.713443   0.843885
  0.900338   0.976385
  0.786397   0.977169
  0.815888   0.622050
  0.822908   0.609246
  0.997481   0.667497
  0.957437   0.646770
  0.834108   0.848524
  0.797522   0.950766
  0.524654   0.861356
  0.815659   0.780296
  0.856700   0.557116
  0.929517   0.392938
  0.546255   0.909017
  0.847597   0.564949
  0.857948   0.538501
  0.582375   0.978066
  0.836651   0.596897
  0.955197   0.991251
  0.967710   0.309765
  0.970927   0.362921
  0.972260   0.774527
  0.991777   0.802488
  0.634611   0.899300
  0.983505   0.762061
  0.954065   0.976852
  0.946300   0.471823
  0.935964   0.744403
  0.784905   0.894414
  0.761876   0.856388
  0.749608   0.663396
  0.698454   0.922387
  0.864679   0.662634
  0.914286   0.405736
  0.921431   0.485469
  0.946912   0.748050
  0.808636   0.736984
  0.446359   0.950953
  0.989582   0.900171
  0.986730   0.978756
  0.957622   0.754433
  0.843338   0.981188
  0.586948   0.831259
  0.964739   0.362338
  0.999535   0.190129
  0.702555   0.835924
  0.865403   0.829297
  0.988277   0.971232
  0.929789   0.967349
  0.834052   0.905846
  0.549592   0.993116
  0.972899   0.509034
  0.894612   0.747841
  0.896573   0.696370
  0.895323   0.692109
  0.769019   0.895714
  0.922936   0.779120
  0.965350   0.640904
  0.706836   0.788120
  0.927198   0.419756
  0.853742   0.846734
  0.987887   0.421610
  0.996261   0.166229
  0.741341   0.710060
  0.986564   0.184633
  0.847794   0.866894
  0.342949   0.950384
  0.881995   0.692123
  0.679829   0.891589
  0.936680   0.786008
  0.902519   0.639427
  0.842960   0.636358
  0.639847   0.914343
  0.924584   0.483865
  0.640853   0.811882
  0.964390   0.505545
  0.708920   0.811459
  0.889017   0.708966
  0.596170   0.821592
  0.873676   0.872229
  0.544766   0.878715
  0.562020   0.867899
  0.785429   0.707524
  0.986730   0.969333
  0.715881   0.811789
  0.743723   0.758578
  0.984642   0.876488
  0.268517   0.968033
  0.852261   0.947540
  0.984330   0.626912
  0.975340   0.539112
  0.925853   0.819260
  0.938000   0.963230
  0.894139   0.801133
  0.955818   0.428998
  0.997551   0.833384
  0.809759   0.622397
  0.625209   0.894601
  0.451417   0.958957
  0.806801   0.899814
  0.957394   0.917047
  0.970992   0.470618
  0.867707   0.550540
  0.930476   0.504584
  0.891414   0.998857
  0.983204   0.702423
  0.900612   0.588824
  0.530724   0.874010
  0.991710   0.666272
  0.956610   0.749775
  0.933299   0.959061
  0.946437   0.767556
  0.693928   0.843582
  0.902774   0.918181
  0.867116   0.622055
  0.816801   0.975829
  0.954097   0.512246
  0.732839   0.818347
  0.960462   0.492249
  0.945525   0.441028
  0.792330   0.685520
  0.535425   0.888846
  0.681858   0.982502
  0.377341   0.972708
  0.469977   0.902062
  0.953079   0.397385
  0.848982   0.845627
  0.771507   0.725145
  0.698983   0.814215
  0.710168   0.787866
  0.856104   0.542572
  0.429221   0.915113
  0.909202   0.965662
  0.924792   0.983512
  0.352588   0.942516
  0.861708   0.727557
  0.819766   0.801321
  0.796322   0.784341
  0.609745   0.982804
  0.979978   0.495510
  0.899610   0.743308
  0.779304   0.758148
  0.946852   0.737845
  0.968698   0.910011
  0.987576   0.194808
  0.966169   0.407746
  0.988884   0.167692
  0.697850   0.772338
  0.849764   0.987744
  0.879332   0.930699
  0.983754   0.946586
  0.779653   0.626407
  0.751098   0.702378
  0.859439   0.585739
  0.813218   0.749350
  0.935424   0.675825
  0.835301   0.901952
  0.588742   0.993154
  0.947246   0.357044
  0.842247   0.644889
  0.868860   0.937287
  0.974712   0.981825
  0.766037   0.777664
  0.923171   0.726772
  0.800834   0.622799
  0.994882   0.984766
  0.963218   0.798340
  0.743429   0.810974
  0.938917   0.382767
  0.650315   0.846804
  0.901212   0.667396
  0.653527   0.824436
  0.911374   0.458409
  0.486761   0.997085
  0.649250   0.947749
  0.704465   0.951047
  0.247931   0.968803
  0.672446   0.804113
  0.658942   0.844664
  0.934643   0.548765
  0.787452   0.698221
  0.999764   0.033518
  0.645016   0.780656
  0.685603   0.933285
  0.721649   0.747634
  0.729272   0.871129
  0.580167   0.861744
  0.464266   0.915838
  0.915090   0.911208
  0.936214   0.956782
  0.633659   0.914058
  0.968803   0.671155
  0.945068   0.752348
  0.754967   0.725239
  0.992819   0.313254
  0.854880   0.972142
  0.798471   0.898003
  0.980828   0.772240
  0.798593   0.947510
  0.952003   0.321634
  0.699638   0.815907
  0.941256   0.687771
  0.853980   0.846095
  0.526804   0.997574
  0.751222   0.793842
  0.966430   0.792188
  0.664838   0.939467
  0.648348   0.789253
  0.756290   0.965894
  0.867118   0.655943
  0.494791   0.958511
  0.823095   0.760949
  0.854438   0.537913
  0.995220   0.661083
  0.821740   0.982027
  0.823042   0.869330
  0.902229   0.765328
  0.870798   0.509407
  0.843331   0.865921
  0.532806   0.874026
  0.759912   0.844332
  0.848852   0.653586
  0.821491   0.807168
  0.927163   0.820405
  0.967989   0.998926
  0.950608   0.869926
  0.993918   0.779415
  0.832435   0.728090
  0.638769   0.796768
  0.988810   0.937575
  0.818162   0.852009
  0.683044   0.914410
  0.563269   0.860562
  0.806558   0.816226
  0.965866   0.306511
  0.527034   0.863080
  0.786914   0.656017
  0.860594   0.996700
  0.987028   0.984518
  0.327481   0.971217
  0.768414   0.738026
  0.351398   0.942323
  0.779016   0.919316
  0.937145   0.595081
  0.696366   0.825723
  0.926559   0.680592
  0.709280   0.869976
  0.691670   0.897204
  0.902388   0.436045
  0.614851   0.803184
  0.319150   0.961666
  0.801147   0.872414
  0.841597   0.726979
  0.803878   0.784111
  0.548104   0.990722
  0.899119   0.487780
  0.988126   0.435575
  0.702431   0.757061
  0.917737   0.401339
  0.479675   0.890694
  0.893851   0.949551
  0.903345   0.518052
  0.907279   0.643892
  0.885382   0.616492
  0.731942   0.755326
  0.756513   0.708886
  0.883132   0.799359
  0.434580   0.993172
  0.662933   0.917924
  0.920261   0.818453
  0.784060   0.691918
  0.876333   0.530697
  0.846895   0.770728
  0.983234   0.217648
  0.988417   0.316451
  0.770923   0.907184
  0.427856   0.978858
  0.994783   0.322516
  0.983926   0.845801
  0.482594   0.962874
  0.972838   0.490566
  0.935070   0.728989
  0.764483   0.672512
  0.915669   0.646218
  0.979435   0.361229
  0.779074   0.900946
  0.819878   0.695279
  0.298149   0.984953
  0.600931   0.848871
  0.738794   0.903389
  0.967979   0.817495
  0.946970   0.732466
  0.660497   0.980425
  0.770453   0.997503
  0.551370   0.872644
  0.749564   0.914827
  0.967774   0.375779
  0.373592   0.957178
  0.760265   0.782167
  0.906226   0.937803
  0.633477   0.840228
  0.713086   0.833210
  0.753540   0.740360
  0.694403   0.829562
  0.926967   0.526442
  0.917173   0.934985
  0.733554   0.839259
  0.978690   0.839375
  0.970524   0.598370
  0.392871   0.975917
  0.319389   0.979285
  0.903761   0.516298
  0.618849   0.996235
  0.842545   0.655620
  0.667633   0.909774
  0.527278   0.964645
  0.795546   0.737220
  0.459332   0.995025
  0.549295   0.999775
  0.999397   0.862293
  0.811787   0.700663
  0.762816   0.652138
  0.927316   0.393950
  0.890870   0.849604
  0.955665   0.861432
  0.969264   0.416881
  0.727607   0.897815
  0.662571   0.833893
  0.831652   0.581026
  0.594330   0.897768
  0.998814   0.060469
  0.690477   0.841992
  0.778481   0.938291
  0.852966   0.797281
  0.902240   0.947612
  0.914365   0.727406
  0.514601   0.894098
  0.865466   0.878742
  0.971582   0.385454
  0.446597   0.953100
  0.491817   0.964431
  0.994066   0.270361
  0.956307   0.657282
  0.941130   0.564587
  0.694102   0.780005
  0.768298   0.781199
  0.910569   0.926750
  0.616160   0.805660
  0.959589   0.806333
  0.708747   0.914238
  0.582728   0.905265
  0.970281   0.520957
  0.687198   0.744556
  0.746296   0.991802
  0.761699   0.873344
  0.875875   0.832555
  0.747708   0.725783
  0.863313   0.695293
  0.363119   0.946046
  0.953700   0.835375
  0.839041   0.768930
  0.834094   0.612277
  0.430414   0.963978
  0.221931   0.987381
  0.908829   0.686409
  0.612950   0.850185
  0.914142   0.981862
  0.368536   0.988251
  0.538579   0.894920
  0.917440   0.407012
  0.778126   0.965401
  0.900202   0.692729
  0.799542   0.902753
  0.889912   0.744682
  0.873981   0.996395
  0.928459   0.606700
  0.808452   0.660806
  0.821428   0.739581
  0.923515   0.511351
  0.284284   0.959567
  0.882711   0.718028
  0.901980   0.575380
  0.791914   0.704203
  0.389001   0.941934
  0.930950   0.480343
  0.817859   0.756588
  0.978895   0.283643
  0.780562   0.897915
  0.694705   0.905417
  0.957748   0.864594
  0.655192   0.816611
  0.690533   0.782847
  0.959114   0.832617
  0.903192   0.940931
  0.970629   0.363710
  0.936613   0.662157
  0.869793   0.619139
  0.973996   0.945855
  0.987255   0.797642
  0.973444   0.676773
  0.924357   0.661975
  0.988774   0.322986
  0.590288   0.978547
  0.820478   0.771072
  0.897103   0.609580
  0.366988   0.972163
  0.229248   0.974767
  0.902151   0.454779
  0.909897   0.644874
  0.670489   0.901391
  0.875394   0.750107
  0.982609   0.702232
  0.986284   0.474880
  0.762955   0.979567
  0.907059   0.933793
  0.830529   0.702587
  0.905918   0.755596
  0.769188   0.750930
  0.777403   0.804765
  0.691669   0.889072
  0.636876   0.979407
  0.899802   0.972178
  0.974530   0.932805
  0.737541   0.852671
  0.991678   0.133640
  0.595574   0.809498
  0.752823   0.697448
  0.855275   0.604059
  0.291723   0.987170
  0.701492   0.978818
  0.674588   0.799143
  0.973007   0.329722
